{
  "base_path": "/home/rik/Code/libraries/reduction_test_cases/reduction_test_cases/paper_run/sampling_test_all/reducers/fastcore/parameterizer/kineticizer",
  "git-hash": "8e40d40d3fca3d77e0471f848db94cfbfd90d848",
  "input_hashes": {
    "../../kinetic/kinetic_model.xml": {
      "hash_type": "md5",
      "hash_value": "21a78e03b3b6dd7bd607235c53e9d669"
    }
  },
  "output_hashes": {
    "cooperativities.json": {
      "hash_type": "md5",
      "hash_value": "88c9517a73532e1e9b01e882a0a00378",
      "output_order": 1
    },
    "cython/ode": {
      "hash_type": "md5",
      "hash_value": "f052b84265a7e099113a4b164a966da1",
      "output_order": 2
    },
    "kinetic_model.xml": {
      "hash_type": "md5",
      "hash_value": "fc8b05e7ab588d10a2864cae9b0834e6",
      "output_order": 0
    }
  },
  "settings": {
    "add_abstract_metabolites": [],
    "additional_input_reactions": {},
    "allow_missing_abstract_metabolites": true,
    "biomass_scaling": false,
    "cythonize": true,
    "cythonize_settings": {
      "module_name": "par_fastcore_ode",
      "skip_jacobian": true,
      "skip_sensitivity": true
    },
    "fixed_metabolites": [],
    "fixed_reactions": {
      "R_ATPM": 0.0023305555555555558,
      "R_Biomass_Ecoli_core_w_GAM": 0.0002397665422801161,
      "R_EX_ac_e": 0.0,
      "R_EX_acald_e": 0.0,
      "R_EX_akg_e": 0.0,
      "R_EX_co2_e": 0.006463281576665183,
      "R_EX_etoh_e": 0.0,
      "R_EX_for_e": 0.0,
      "R_EX_fru_e": 0.0,
      "R_EX_fum_e": 0.0,
      "R_EX_glc_e": -0.002777777777777778,
      "R_EX_gln_L_e": 0.0,
      "R_EX_glu_L_e": 0.0,
      "R_EX_h2o_e": 0.008209836977250463,
      "R_EX_h_e": 0.004809716838139109,
      "R_EX_lac_D_e": 0.0,
      "R_EX_mal_L_e": 0.0,
      "R_EX_nh4_e": -0.0013073990017450172,
      "R_EX_o2_e": -0.006186087477135143,
      "R_EX_pi_e": -0.0008820291790858652,
      "R_EX_pyr_e": 0.0,
      "R_EX_succ_e": 0.0,
      "R_FRUpts2": 0,
      "R_FUMt2_2": 0,
      "R_GLNabc": 0,
      "R_MALt2_2": 0
    },
    "ignore_reactions": [],
    "limit_total_lumped_stoichiometry": true,
    "max_reaction_order": 3,
    "merge_parameters": [
      "enzyme_rate",
      "km_merged",
      "km_rate"
    ],
    "positive_fractional_powers": false,
    "rate_law_args": {
      "parametrisation": "weg",
      "sub_rate_law": "CM"
    },
    "rate_law_type": "modular",
    "replace_reactions": {},
    "scaling_factor": false,
    "silence_output": false,
    "simplified_rate_law_args": {
      "parametrisation": "weg",
      "sub_rate_law": "PM"
    },
    "simplified_rate_law_type": "modular",
    "simplify_lumped_reactions": true,
    "simplify_reactions": [
      "R_CO2t",
      "R_H2Ot",
      "R_O2t",
      "R_FORti"
    ]
  },
  "updated": "Monday - 09/03/2020 - 16:18:49 (CET)"
}