{
  "base_path": "/home/rik/Code/libraries/reduction_test_cases/reduction_test_cases/paper_run/sampling_test_all/reducers/networkreducer/restored",
  "git-hash": "8e40d40d3fca3d77e0471f848db94cfbfd90d848",
  "input_hashes": {
    "../../../inputs/input_model.xml": {
      "hash_type": "md5",
      "hash_value": "788dc7f47132d41f8f2ef7ac1f4d6bd1"
    },
    "../../../inputs/normalized/annotation.json": {
      "hash_type": "md5",
      "hash_value": "a7d1e935e6429dc3e631e3fa3a1026b3"
    },
    "../reduced/reduced_temp.xml": {
      "hash_type": "md5",
      "hash_value": "288f4c0e160622c3dffb079096decf9d"
    }
  },
  "output_hashes": {
    "lumpings.json": {
      "hash_type": "md5",
      "hash_value": "acfaf36b313a2fadb748895be2449eb3",
      "output_order": 1
    },
    "reduced.xml": {
      "hash_type": "md5",
      "hash_value": "628f0e9cb6b67a39bc6106b16f7123d6",
      "output_order": 0
    }
  },
  "settings": {
    "silence_output": true,
    "validate": true
  },
  "updated": "Monday - 09/03/2020 - 16:03:43 (CET)"
}