{
  "base_path": "/home/rik/Code/libraries/reduction_test_cases/reduction_test_cases/paper_run/optimization_test_final/amici_simulator/full/experiment_0",
  "git-hash": "39fdb75b1fc8d83fe84308ea8d733859b38d7886",
  "input_hashes": {
    "../../../amici_compiler/full/experiment_0/model_description.json": {
      "hash_type": "md5",
      "hash_value": "94c6465db90a6eff6a40bbe9143eb205"
    },
    "../../../amici_compiler/full/experiment_0/simulate_model.m": {
      "hash_type": "md5",
      "hash_value": "87dada36a0160289a457a08030f5184d"
    },
    "../../../inputs/experiments/experiment_0/conditions.h5": {
      "hash_type": "md5",
      "hash_value": "45d55ce35d7b4c0876650b8b0d3c2f91"
    }
  },
  "output_hashes": {
    "parameter_scaling.json": {
      "hash_type": "md5",
      "hash_value": "b2ed61f5152c75957aa2c0912f7e98c0",
      "output_order": 1
    },
    "simulations.h5": {
      "hash_type": "md5",
      "hash_value": "8d29dd35be57bfbef17cd8c01428225e",
      "output_order": 0
    }
  },
  "settings": {
    "atol": 1e-12,
    "deflate": 4,
    "maxsteps": 1000000.0,
    "pscale": "auto",
    "rtol": 1e-09,
    "sensi": 0,
    "shuffle": true,
    "silence_output": false,
    "t_end": 150,
    "t_out": null,
    "t_start": 0,
    "t_step": 0.1
  },
  "updated": "Thursday - 19/03/2020 - 16:11:12 (CET)"
}