{
  "base_path": "/home/rik/Code/libraries/reduction_test_cases/reduction_test_cases/paper_run/sampling_test_all/reducers/networkreducer/parameterizer/kineticizer",
  "git-hash": "8e40d40d3fca3d77e0471f848db94cfbfd90d848",
  "input_hashes": {
    "../../kinetic/kinetic_model.xml": {
      "hash_type": "md5",
      "hash_value": "3c61c0be4d2c9cef9ed169a2847cb134"
    }
  },
  "output_hashes": {
    "cooperativities.json": {
      "hash_type": "md5",
      "hash_value": "c4fd46770f49b4fc49842c0add611e4e",
      "output_order": 1
    },
    "cython/ode": {
      "hash_type": "md5",
      "hash_value": "a24af04976ce0d8eee70e002b5212f7f",
      "output_order": 2
    },
    "kinetic_model.xml": {
      "hash_type": "md5",
      "hash_value": "b66d06446b71daea852f4bddc8f0825b",
      "output_order": 0
    }
  },
  "settings": {
    "add_abstract_metabolites": [],
    "additional_input_reactions": {},
    "allow_missing_abstract_metabolites": true,
    "biomass_scaling": false,
    "cythonize": true,
    "cythonize_settings": {
      "module_name": "par_networkreducer_ode",
      "skip_jacobian": true,
      "skip_sensitivity": true
    },
    "fixed_metabolites": [],
    "fixed_reactions": {
      "R_ATPM": 0.0023305555555555558,
      "R_Biomass_Ecoli_core_w_GAM": 0.00024275597415789724,
      "R_EX_ac_e": 0.0,
      "R_EX_acald_e": 0.0,
      "R_EX_akg_e": 0.0,
      "R_EX_co2_e": 0.0063360648083902625,
      "R_EX_etoh_e": 0.0,
      "R_EX_for_e": 0.0,
      "R_EX_fru_e": 0.0,
      "R_EX_fum_e": 0.0,
      "R_EX_glc_e": -0.002777777777777778,
      "R_EX_gln_L_e": 0.0,
      "R_EX_glu_L_e": 0.0,
      "R_EX_h2o_e": 0.008104396426546054,
      "R_EX_h_e": 0.004869684841607405,
      "R_EX_lac_D_e": 0.0,
      "R_EX_mal_L_e": 0.0,
      "R_EX_nh4_e": -0.0013236997758881831,
      "R_EX_o2_e": -0.006055414626666319,
      "R_EX_pi_e": -0.0008930264021346567,
      "R_EX_pyr_e": 0.0,
      "R_EX_succ_e": 0.0,
      "R_FRUpts2": 0,
      "R_FUMt2_2": 0,
      "R_GLNabc": 0,
      "R_MALt2_2": 0
    },
    "ignore_reactions": [],
    "limit_total_lumped_stoichiometry": true,
    "max_reaction_order": 3,
    "merge_parameters": [
      "enzyme_rate",
      "km_merged",
      "km_rate"
    ],
    "positive_fractional_powers": false,
    "rate_law_args": {
      "parametrisation": "weg",
      "sub_rate_law": "CM"
    },
    "rate_law_type": "modular",
    "replace_reactions": {},
    "scaling_factor": false,
    "silence_output": false,
    "simplified_rate_law_args": {
      "parametrisation": "weg",
      "sub_rate_law": "PM"
    },
    "simplified_rate_law_type": "modular",
    "simplify_lumped_reactions": true,
    "simplify_reactions": [
      "R_CO2t",
      "R_H2Ot",
      "R_O2t",
      "R_FORti"
    ]
  },
  "updated": "Monday - 09/03/2020 - 16:04:57 (CET)"
}