parameter_type,metabolite,reaction,mean,sd
mu,M_13dpg_c,,-2201.9,2.1
mu,M_2pg_c,,-1343.9,1.6
mu,M_3pg_c,,-1348.1,1.5
mu,M_6pgc_c,,-1565.2,2.5
mu,M_6pgl_c,,-1386.6,2.9
mu,M_accoa_c,,-1855.6,14.9
mu,M_acon_C_c,,-800.1,3.0
mu,M_adp_c,,-1423.6,2.4
mu,M_akg_c,,-631.1,2.6
mu,M_atp_c,,-2295.8,3.0
mu,M_cit_c,,-966.0,2.3
mu,M_co2_c,,-386.0,5.8
mu,M_co2_e,,-386.0,5.8
mu,M_coa_c,,-1796.3,15.0
mu,M_dhap_c,,-1094.8,1.1
mu,M_e4p_c,,-1159.4,3.4
mu,M_f6p_c,,-1316.7,1.3
mu,M_fdp_c,,-2203.8,2.1
mu,M_fum_c,,-519.6,2.3
mu,M_g3p_c,,-1089.3,1.3
mu,M_g6p_c,,-1319.2,1.3
mu,M_glc_D_e,,-429.7,1.3
mu,M_gln_L_c,,-120.4,3.7
mu,M_glu_L_c,,-368.3,2.5
mu,M_glx_c,,-431.1,2.8
mu,M_h2o_c,,-157.6,1.6
mu,M_h2o_e,,-157.6,1.6
mu,M_h_c,,0.0,5.8
mu,M_h_e,,0.0,5.8
mu,M_icit_c,,-958.4,2.3
mu,M_mal_L_c,,-680.7,2.0
mu,M_nad_c,,-1205.8,12.4
mu,M_nadh_c,,-1141.6,12.4
mu,M_nadp_c,,-2089.8,12.7
mu,M_nadph_c,,-2024.7,12.7
mu,M_nh4_c,,82.3,10.0
mu,M_nh4_e,,82.3,10.0
mu,M_o2_c,,16.4,5.8
mu,M_o2_e,,16.4,5.8
mu,M_oaa_c,,-714.5,2.1
mu,M_pep_c,,-1190.3,1.6
mu,M_pi_c,,-1056.2,1.5
mu,M_pi_e,,-1056.2,1.5
mu,M_pyr_c,,-345.8,1.5
mu,M_q8_c,,710.8,19.6
mu,M_q8h2_c,,690.2,19.6
mu,M_r5p_c,,-1235.1,2.0
mu,M_ru5p_D_c,,-1233.1,1.9
mu,M_s7p_c,,-1386.1,3.7
mu,M_succ_c,,-518.6,3.7
mu,M_succoa_c,,-2132.8,15.4
mu,M_xu5p_D_c,,-1236.5,2.4
c,M_3pg_c,,1.5447067216828048,0.01785773295584141
c,M_3pg_c,,4.098204583465743,0.8121176748596662
c,M_3pg_c,,1.5385048276951692,0.6201625307159089
c,M_6pgc_c,,3.7693720805037865,0.04081760191222055
c,M_6pgc_c,,0.4134210196534363,0.20915707514179616
c,M_6pgc_c,,0.2082247202132612,0.1684682159360229
c,M_6pgc_c,,0.31,0.031
c,M_6pgc_c,,0.38,0.07
c,M_6pgc_c,,0.45,0.032
c,M_accoa_c,,0.6073641211089674,0.042114875487516586
c,M_accoa_c,,0.7988099464804759,0.676170381972815
c,M_accoa_c,,0.7192963722332947,0.8008550544841998
c,M_accoa_c,,0.063,0.006300000000000001
c,M_accoa_c,,0.3,0.019
c,M_accoa_c,,0.13,0.04
c,M_accoa_c,,0.008,0.0008
c,M_acon_C_c,,0.016157323970183955,0.0012764100038081929
c,M_acon_C_c,,0.10030939504254184,0.06257727323542478
c,M_acon_C_c,,0.07685185914653833,0.055092480977487035
c,M_adp_c,,0.5587793653822561,0.06822574560303503
c,M_adp_c,,0.1519370977554555,0.06507889899343554
c,M_adp_c,,0.20842655932742693,0.19183454019950705
c,M_adp_c,,0.17,0.017
c,M_adp_c,,0.4,0.026
c,M_adp_c,,0.5640000000000001,0.05640000000000001
c,M_akg_c,,0.4509225530673608,0.081676595627781
c,M_akg_c,,0.6393289483905351,0.3619450952527365
c,M_akg_c,,0.4621438550878784,0.25001952935996874
c,M_atp_c,,9.663015478452325,0.8348849681880611
c,M_atp_c,,9.073003978632984,2.448850221287599
c,M_atp_c,,4.219767841048265,1.7119557234227294
c,M_atp_c,,0.31,0.012
c,M_atp_c,,1.31,0.131
c,M_atp_c,,4.15,2.85
c,M_cit_c,,2.0428257077369745,0.6133961269789729
c,M_cit_c,,2.4429003720909868,1.6223557851449413
c,M_cit_c,,21.998590307776386,5.0072444433330086
c,M_cit_c,,0.099,0.012
c,M_co2_c,,0.0102,0.0010199999999999999
c,M_co2_c,,0.0119,0.00119
c,M_co2_e,,0.0102,0.0010199999999999999
c,M_co2_e,,0.0119,0.00119
c,M_coa_c,,3.636553372245392,8.955474360138432
c,M_coa_c,,12.983361365216625,69.56052909599902
c,M_coa_c,,10.528869627154489,56.1453339881155
c,M_dhap_c,,0.37357975479032096,0.015564477694656659
c,M_dhap_c,,0.5541224261874959,0.2167424216510045
c,M_dhap_c,,0.1586267552655779,0.13092761981565607
c,M_e4p_c,,0.001,0.0001
c,M_e4p_c,,0.003,0.00030000000000000003
c,M_f6p_c,,0.25,0.019
c,M_f6p_c,,0.29,0.06
c,M_f6p_c,,0.055,0.0055
c,M_fdp_c,,15.164906245203474,0.6123658098693164
c,M_fdp_c,,5.932402081819391,2.03215930722594
c,M_fdp_c,,0.085,0.0085
c,M_fdp_c,,0.005,0.0005
c,M_fdp_c,,3.29,0.179
c,M_fdp_c,,1.01,0.1
c,M_fum_c,,0.6507041024805805,3.618980364625462
c,M_fum_c,,1.459582108166268,16.41953874566
c,M_fum_c,,1.5581123912595471,17.909795556403704
c,M_g3p_c,,0.061980219785006736,0.047707998409468315
c,M_g3p_c,,1.0878799402756585,1.9355268596005355
c,M_g3p_c,,0.3450398625841799,0.6758995435942587
c,M_g3p_c,,0.15,0.05
c,M_g6p_c,,0.22,0.015
c,M_g6p_c,,0.68,0.09
c,M_g6p_c,,0.18,0.018000000000000002
c,M_g6p_c,,0.05,0.005
c,M_gln_L_c,,3.814768090984785,0.16585380721162082
c,M_gln_L_c,,4.959512764013856,0.6533849079611294
c,M_gln_L_c,,3.0678738213605503,0.4850362415648762
c,M_gln_L_c,,0.494,0.049400000000000006
c,M_gln_L_c,,0.184,0.023
c,M_gln_L_c,,0.249,0.02
c,M_glu_L_c,,96.04729395549616,1.8878698554153548
c,M_glu_L_c,,149.74478899409954,17.864456900441123
c,M_glu_L_c,,45.327023006349116,14.737302484043466
c,M_glu_L_c,,4.2700000000000005,0.42700000000000005
c,M_glu_L_c,,0.259,0.045
c,M_mal_L_c,,1.6799119393915103,0.010204310463778662
c,M_mal_L_c,,3.4620709336535795,0.4185431166556424
c,M_mal_L_c,,3.3368505033596034,0.4134473173872185
c,M_nad_c,,2.551659736454104,0.12248223136024125
c,M_nad_c,,4.858637964607364,6.287397533720756
c,M_nad_c,,2.6352017584846448,2.1969130111304502
c,M_nad_c,,3.5500000000000003,0.21899999999999997
c,M_nad_c,,0.7929999999999999,0.07930000000000001
c,M_nad_c,,0.623,0.055999999999999994
c,M_nadh_c,,0.08515578500016256,0.018594139905043657
c,M_nadh_c,,0.2053185586645772,0.5098338813502603
c,M_nadh_c,,0.14032186653998233,0.07818412170238298
c,M_nadp_c,,0.005395542228800689,0.012866119322645432
c,M_nadp_c,,0.08,0.003
c,M_nadp_c,,0.11,0.011000000000000001
c,M_nadp_c,,0.63,0.063
c,M_nadph_c,,0.12156237788959633,0.006124269194775678
c,M_nadph_c,,0.4753057093259064,1.2495350078516816
c,M_nadph_c,,0.4421061521578034,0.9696508332027448
c,M_nadph_c,,0.163,0.016300000000000002
c,M_nadph_c,,0.56,0.055999999999999994
c,M_oaa_c,,0.03,0.001
c,M_pep_c,,0.1849086695882799,0.021717119393232825
c,M_pep_c,,1.3526940482731835,0.3527093979396462
c,M_pep_c,,0.9197912614066244,0.3024421507510321
c,M_pep_c,,0.011000000000000001,0.0011
c,M_pep_c,,0.07,0.006
c,M_pi_c,,5.0,0.5
c,M_pyr_c,,8.05,0.805
c,M_pyr_c,,0.9,0.09
c,M_succ_c,,0.5885927095425313,0.15634361627109794
c,M_succ_c,,1.1992216219665952,0.7554294868370357
c,M_succ_c,,1.0181932999093672,0.9416232651322842
c,M_succ_c,,1.6019999999999999,0.12300000000000001
c,M_succoa_c,,0.2407997359943048,0.06194039584434281
c,M_succoa_c,,1.9506549490567664,3.5488290100330784
c,M_succoa_c,,0.4985792703057598,0.7938343044378133
c,M_glc_D_e,,5.0,1e-06
c,M_co2_e,,0.01,0.0001
c,M_co2_c,,0.01,0.0001
c,M_o2_e,,0.25,0.0025
c,M_o2_c,,0.25,0.0025
c,M_h_e,,0.0001,1e-06
c,M_h_c,,0.0001,1e-06
c,M_h2o_e,,55555.0,55.0
c,M_h2o_c,,55555.0,55.0
c,M_pi_e,,64.3,6.43
c,M_nh4_e,,18.7,1.87
c,M_nh4_c,,18.7,1.87
keq,,R_CO2t,1.0,0.001
keq,,R_H2Ot,1.0,0.001
keq,,R_O2t,1.0,0.001
