parameter_type,metabolite,reaction,value
A,,R_ACONTa,0.10038261657956582
A,,R_ACONTb,7.834020256087456
A,,R_AKGDH,48.13156502782135
A,,R_ATPS4r,0.10150793333036745
A,,R_CO2t,-0.10113505376517651
A,,R_CS,56.483447715380464
A,,R_CYTBD,92.87032337885408
A,,R_ENO,0.10005214431976128
A,,R_FBA,0.09919599840895899
A,,R_FUM,18.47629190211643
A,,R_G6PDH2r,35.2526687988061
A,,R_GAPD,30.51152939796839
A,,R_GLCpts,36.25107834008162
A,,R_GLNS,46.864615868914825
A,,R_GLUDy,-0.0988694056939039
A,,R_GND,18.137461187905956
A,,R_H2Ot,-0.09968554656958872
A,,R_ICDHyr,0.1017906826550643
A,,R_ICL,0.1014147722989378
A,,R_MALS,50.52109649921567
A,,R_MDH,5.951670857259614
A,,R_NADH16,15.899760273561014
A,,R_NH4t,0.10047952129239945
A,,R_O2t,0.0996442437179983
A,,R_PDH,60.907218220854475
A,,R_PFK,11.836612236477322
A,,R_PGI,0.10090030778135706
A,,R_PGK,-0.09729910712417222
A,,R_PGL,42.1871861500415
A,,R_PGM,-0.10070770924153294
A,,R_PIt2r,20.139523231252497
A,,R_PYK,0.09892951062465727
A,,R_RPE,0.09884681571111287
A,,R_RPI,-4.396325377580524
A,,R_SUCDi,29.012097947353368
A,,R_SUCOAS,-6.005619125379781
A,,R_TALA,0.09873509764294397
A,,R_TKT1,0.10119183906977014
A,,R_TKT2,0.09966089341855877
A,,R_TPI,0.10028609779192266
R,,,0.008314
T,,,300.0
c,M_13dpg_c,,0.0010711412392878789
c,M_2pg_c,,3.836083026848766
c,M_3pg_c,,1.5464058426779326
c,M_6pgc_c,,3.4102465208103414
c,M_6pgl_c,,0.0009693634902164914
c,M_accoa_c,,0.1681185016536373
c,M_acon_C_c,,0.016444178744228568
c,M_adp_c,,0.3676358420291269
c,M_akg_c,,0.43879785832310403
c,M_atp_c,,0.6470474786287601
c,M_cit_c,,0.44469106017632165
c,M_co2_c,,0.010207969264268965
c,M_co2_e,,0.009811330740202174
c,M_coa_c,,0.8947183662989359
c,M_dhap_c,,0.3729595246017804
c,M_e4p_c,,0.0017157220911488372
c,M_f6p_c,,0.14767938084839624
c,M_fdp_c,,2.806101567947989
c,M_fum_c,,0.06432785614229418
c,M_g3p_c,,0.09013600816055503
c,M_g6p_c,,0.17640813539975184
c,M_glc_D_e,,5.007594526673467
c,M_gln_L_c,,1.6073926972474564
c,M_glu_L_c,,81.11677216583175
c,M_glx_c,,0.0006794637871882105
c,M_h2o_c,,57319.74292517549
c,M_h2o_e,,55044.55285257493
c,M_h_c,,9.875652094492195e-05
c,M_h_e,,0.00010073623918093323
c,M_icit_c,,0.021842109227700475
c,M_mal_L_c,,1.6667760645437797
c,M_nad_c,,2.0389952460388363
c,M_nadh_c,,0.08642563087345521
c,M_nadp_c,,0.1042370754375306
c,M_nadph_c,,0.1647714400942296
c,M_nh4_c,,18.28683854592795
c,M_nh4_e,,18.37990801288353
c,M_o2_c,,0.24607660892715988
c,M_o2_e,,0.25572098360324275
c,M_oaa_c,,0.029827488307890473
c,M_pep_c,,0.059317284908559816
c,M_pi_c,,4.957223460951184
c,M_pi_e,,62.63227862876425
c,M_pyr_c,,2.6569959355744417
c,M_q8_c,,0.0009447408952105424
c,M_q8h2_c,,0.0009848995966447152
c,M_r5p_c,,0.0018616935192258622
c,M_ru5p_D_c,,0.004657270293598666
c,M_s7p_c,,0.004064722261815584
c,M_succ_c,,1.4725610368070965
c,M_succoa_c,,0.24279948900465279
c,M_xu5p_D_c,,0.014727887240764946
kcat_prod,,R_ACONTa,51635.279521649194
kcat_prod,,R_ACONTb,0.0037580043937693866
kcat_prod,,R_AKGDH,236347.09355419193
kcat_prod,,R_ATPS4r,0.3511812570645898
kcat_prod,,R_CO2t,0.8569831145241747
kcat_prod,,R_CS,431.7164832627197
kcat_prod,,R_CYTBD,24602169684.825043
kcat_prod,,R_ENO,3778706.503353289
kcat_prod,,R_FBA,0.2638623907629259
kcat_prod,,R_FUM,401.59421462453616
kcat_prod,,R_G6PDH2r,571.7817211331777
kcat_prod,,R_GAPD,0.29135309402432036
kcat_prod,,R_GLCpts,14233.130108688114
kcat_prod,,R_GLNS,40.121874483670545
kcat_prod,,R_GLUDy,0.004763288457947454
kcat_prod,,R_GND,3.3512207951439033
kcat_prod,,R_H2Ot,22.331217013454978
kcat_prod,,R_ICDHyr,28.66203825336226
kcat_prod,,R_ICL,0.7964058248532186
kcat_prod,,R_MALS,239.05803452897229
kcat_prod,,R_MDH,0.005263449497655892
kcat_prod,,R_NADH16,0.41698925980709456
kcat_prod,,R_NH4t,34.94531456857493
kcat_prod,,R_O2t,438.81298044194267
kcat_prod,,R_PDH,1719.6472624779774
kcat_prod,,R_PFK,7748.462555880434
kcat_prod,,R_PGI,4.181462030341488
kcat_prod,,R_PGK,6.625114398019666
kcat_prod,,R_PGL,0.8346105233645233
kcat_prod,,R_PGM,430.78595269457253
kcat_prod,,R_PIt2r,4.41720424838978
kcat_prod,,R_PYK,47.65590517298332
kcat_prod,,R_RPE,65.12624900171608
kcat_prod,,R_RPI,9.050765069407452
kcat_prod,,R_SUCDi,57.793821954754684
kcat_prod,,R_SUCOAS,22.298874561953696
kcat_prod,,R_TALA,1.7164887729487788
kcat_prod,,R_TKT1,393.7816279814053
kcat_prod,,R_TKT2,1192.6317929668971
kcat_prod,,R_TPI,25.472063390672812
kcat_sub,,R_ACONTa,0.0005087514817752666
kcat_sub,,R_ACONTb,32269.798921244495
kcat_sub,,R_AKGDH,3.733268412204614e-05
kcat_sub,,R_ATPS4r,287.4825526920581
kcat_sub,,R_CO2t,113.26425895072417
kcat_sub,,R_CS,0.5447200454930999
kcat_sub,,R_CYTBD,4.75342839206861e-09
kcat_sub,,R_ENO,6.769538631351116e-05
kcat_sub,,R_FBA,269.7165889415187
kcat_sub,,R_FUM,0.3542689702214976
kcat_sub,,R_G6PDH2r,0.05234380119784877
kcat_sub,,R_GAPD,631.0686573334459
kcat_sub,,R_GLCpts,0.005651148027567285
kcat_sub,,R_GLNS,2.294628640233848
kcat_sub,,R_GLUDy,227.28806415261718
kcat_sub,,R_GND,29.775163128192013
kcat_sub,,R_H2Ot,2.6851673531262015
kcat_sub,,R_ICDHyr,0.4701493726749821
kcat_sub,,R_ICL,64.36135852809528
kcat_sub,,R_MALS,3.9971526859499398
kcat_sub,,R_MDH,1300.5881883980614
kcat_sub,,R_NADH16,165.02802326313667
kcat_sub,,R_NH4t,1.6925138230087584
kcat_sub,,R_O2t,0.057998066871962205
kcat_sub,,R_PDH,0.014184071656848492
kcat_sub,,R_PFK,0.04065914333663145
kcat_sub,,R_PGI,19.63194054808298
kcat_sub,,R_PGK,47.240718769487394
kcat_sub,,R_PGL,49.74262763135491
kcat_sub,,R_PGM,0.39401808401769645
kcat_sub,,R_PIt2r,17.330317375182585
kcat_sub,,R_PYK,1.8890253561788728
kcat_sub,,R_RPE,0.16263588550925062
kcat_sub,,R_RPI,19.124559543895607
kcat_sub,,R_SUCDi,5.933351111636603
kcat_sub,,R_SUCOAS,2.045481005649363
kcat_sub,,R_TALA,2.45215458387544
kcat_sub,,R_TKT1,0.1194560515584028
kcat_sub,,R_TKT2,0.1272702155327356
kcat_sub,,R_TPI,9.257662675758894
keq,,R_ACONTa,2206.6671072640193
keq,,R_ACONTb,0.0005358602092651276
keq,,R_AKGDH,64300.62592016608
keq,,R_ATPS4r,198249999.02550757
keq,,R_CO2t,0.9990831273810311
keq,,R_CS,934.9129211598307
keq,,R_CYTBD,1.708729987306078e+21
keq,,R_ENO,922.6112687121412
keq,,R_FBA,0.01246604867030949
keq,,R_FUM,0.7452437106687122
keq,,R_G6PDH2r,1.179370114126013
keq,,R_GAPD,0.0020616887629096173
keq,,R_GLCpts,3237430.61339382
keq,,R_GLNS,43.582069387944
keq,,R_GLUDy,2.589395697564146e-10
keq,,R_GND,0.03171548228954303
keq,,R_H2Ot,1.0005354102089454
keq,,R_ICDHyr,0.3376703828061528
keq,,R_ICL,0.04770935707644998
keq,,R_MALS,14088.518551299068
keq,,R_MDH,8.14417190930523e-07
keq,,R_NADH16,155110478.49897698
keq,,R_NH4t,1.0358359212511756
keq,,R_O2t,1.001507481039726
keq,,R_PDH,1233035.8684106758
keq,,R_PFK,0.1226994738657336
keq,,R_PGI,0.8717063145922243
keq,,R_PGK,0.00037849754180487147
keq,,R_PGL,134.35924808799282
keq,,R_PGM,0.3871685575572184
keq,,R_PIt2r,249.20082036815526
keq,,R_PYK,830592.3516385704
keq,,R_RPE,3.2901855278354515
keq,,R_RPI,0.42926686385280055
keq,,R_SUCDi,5129.114980140618
keq,,R_SUCOAS,0.04671962630021209
keq,,R_TALA,0.7194979118643894
keq,,R_TKT1,13.915546276883473
keq,,R_TKT2,548.2566644972696
keq,,R_TPI,0.25159303227589436
km,M_13dpg_c,R_GAPD,0.002306128095576111
km,M_13dpg_c,R_PGK,1.9286214966262677e-05
km,M_2pg_c,R_ENO,0.017138750970889533
km,M_2pg_c,R_PGM,0.07531551646236988
km,M_3pg_c,R_PGK,0.01042431201018638
km,M_3pg_c,R_PGM,2.6670991482920607e-05
km,M_6pgc_c,R_GND,0.0025725604540051627
km,M_6pgc_c,R_PGL,0.0010140491993822114
km,M_6pgl_c,R_G6PDH2r,0.004672275681487143
km,M_6pgl_c,R_PGL,0.00013134537090752786
km,M_accoa_c,R_CS,0.0038049417704777806
km,M_accoa_c,R_MALS,5.183431400404848e-05
km,M_accoa_c,R_PDH,0.014642863679861862
km,M_acon_C_c,R_ACONTa,0.008107195271847641
km,M_acon_C_c,R_ACONTb,0.01909742885662246
km,M_adp_c,R_ATPS4r,0.0015139777974236932
km,M_adp_c,R_GLNS,0.00043820481835408
km,M_adp_c,R_PFK,0.0008536289969407439
km,M_adp_c,R_PGK,6.855062629048382e-05
km,M_adp_c,R_PYK,0.0001699992094111278
km,M_adp_c,R_SUCOAS,0.00020486683198574974
km,M_akg_c,R_AKGDH,0.0005452236633646174
km,M_akg_c,R_GLUDy,0.0008030045298891651
km,M_akg_c,R_ICDHyr,0.02748982800946489
km,M_atp_c,R_ATPS4r,0.03589080488808725
km,M_atp_c,R_GLNS,1.4643034363183301e-05
km,M_atp_c,R_PFK,0.001106444034360821
km,M_atp_c,R_PGK,4.699209963756761e-05
km,M_atp_c,R_PYK,0.0005167993731100347
km,M_atp_c,R_SUCOAS,2.896255538407879e-05
km,M_cit_c,R_ACONTa,0.009861359839836438
km,M_cit_c,R_CS,0.0001017742089546261
km,M_co2_c,R_AKGDH,3.5232673050448996e-05
km,M_co2_c,R_CO2t,0.2029197045840973
km,M_co2_c,R_GND,0.010825087249100288
km,M_co2_c,R_ICDHyr,0.018981692527935894
km,M_co2_c,R_PDH,0.0006585765546752823
km,M_co2_e,R_CO2t,0.0015367455840022061
km,M_coa_c,R_AKGDH,2.662989165495611
km,M_coa_c,R_CS,0.00010801203317883356
km,M_coa_c,R_MALS,7.344284918449984e-06
km,M_coa_c,R_PDH,0.010404892326561836
km,M_coa_c,R_SUCOAS,0.005288013854093894
km,M_dhap_c,R_FBA,0.006166095227379223
km,M_dhap_c,R_TPI,0.0072805408917031205
km,M_e4p_c,R_TALA,0.0015273497616955553
km,M_e4p_c,R_TKT2,0.0015470585055560866
km,M_f6p_c,R_PFK,0.013794647347501368
km,M_f6p_c,R_PGI,0.10958477670281007
km,M_f6p_c,R_TALA,0.19742277718244464
km,M_f6p_c,R_TKT2,0.0005763938533155298
km,M_fdp_c,R_FBA,4.970051356047965e-05
km,M_fdp_c,R_PFK,1.3160074217480287e-05
km,M_fum_c,R_FUM,0.01241933379371489
km,M_fum_c,R_SUCDi,0.0022248055453768403
km,M_g3p_c,R_FBA,0.10270926761800064
km,M_g3p_c,R_GAPD,0.0027243467380225215
km,M_g3p_c,R_TALA,0.019838395420375635
km,M_g3p_c,R_TKT1,0.022518932852099424
km,M_g3p_c,R_TKT2,0.001424802301761407
km,M_g3p_c,R_TPI,0.0006657320726077813
km,M_g6p_c,R_G6PDH2r,0.0005546385006261006
km,M_g6p_c,R_GLCpts,0.010279848332926396
km,M_g6p_c,R_PGI,0.026775954561532405
km,M_glc_D_e,R_GLCpts,0.0005002803716296443
km,M_gln_L_c,R_GLNS,0.0032284630580278815
km,M_glu_L_c,R_GLNS,3.7900344869532115e-05
km,M_glu_L_c,R_GLUDy,0.0479146494844422
km,M_glx_c,R_ICL,0.004796405496006377
km,M_glx_c,R_MALS,0.0006949138929671769
km,M_h2o_c,R_ACONTa,2.6446131251378774e-05
km,M_h2o_c,R_ACONTb,0.000777799409601134
km,M_h2o_c,R_ATPS4r,0.0015528955530081648
km,M_h2o_c,R_CS,4.269153331136784e-06
km,M_h2o_c,R_CYTBD,0.00040148613983903076
km,M_h2o_c,R_ENO,3.207899898508039e-06
km,M_h2o_c,R_FUM,12.708484210661714
km,M_h2o_c,R_GLUDy,0.001331025927302652
km,M_h2o_c,R_H2Ot,9.10661441924216e-05
km,M_h2o_c,R_MALS,0.0010248361715976526
km,M_h2o_c,R_PGL,1.6893095887718547e-05
km,M_h2o_e,R_H2Ot,0.0007569470815589766
km,M_h_c,R_ATPS4r,0.06627557941557836
km,M_h_c,R_CS,0.018889522751730062
km,M_h_c,R_CYTBD,8.334383321073945e-05
km,M_h_c,R_G6PDH2r,0.00021979972386702103
km,M_h_c,R_GAPD,0.0002292209034045752
km,M_h_c,R_GLNS,7.02584162258393e-05
km,M_h_c,R_GLUDy,0.004039549602984606
km,M_h_c,R_MALS,0.20460480880731685
km,M_h_c,R_MDH,0.000326291063558973
km,M_h_c,R_NADH16,1.2888563853353652e-05
km,M_h_c,R_PFK,0.0008747781808862408
km,M_h_c,R_PGL,0.017521747732511268
km,M_h_c,R_PIt2r,0.014387189512939026
km,M_h_c,R_PYK,0.00016950724027931413
km,M_h_e,R_ATPS4r,0.0004444319756710632
km,M_h_e,R_CYTBD,0.00013566723567471896
km,M_h_e,R_NADH16,0.002702693440515558
km,M_h_e,R_PIt2r,0.0005534146573561029
km,M_icit_c,R_ACONTb,0.06834913065267645
km,M_icit_c,R_ICDHyr,0.0015976536650814355
km,M_icit_c,R_ICL,1.2114076110949851e-05
km,M_mal_L_c,R_FUM,0.0001037614519381778
km,M_mal_L_c,R_MALS,0.005786955773282411
km,M_mal_L_c,R_MDH,1.7029132219275763e-05
km,M_nad_c,R_AKGDH,0.0019380229896735766
km,M_nad_c,R_GAPD,0.005259456002724834
km,M_nad_c,R_MDH,0.007011516194289491
km,M_nad_c,R_NADH16,0.03182174721408689
km,M_nad_c,R_PDH,0.0006141954229815509
km,M_nadh_c,R_AKGDH,0.0008360683517499695
km,M_nadh_c,R_GAPD,0.006774218442218978
km,M_nadh_c,R_MDH,0.047002179372305025
km,M_nadh_c,R_NADH16,0.0005994856472079616
km,M_nadh_c,R_PDH,0.00016557567156630425
km,M_nadp_c,R_G6PDH2r,0.3520926141962821
km,M_nadp_c,R_GLUDy,0.00040871229370478764
km,M_nadp_c,R_GND,0.002090325971674852
km,M_nadp_c,R_ICDHyr,1.0715167736867017e-05
km,M_nadph_c,R_G6PDH2r,0.020530353836372736
km,M_nadph_c,R_GLUDy,0.033765175307000385
km,M_nadph_c,R_GND,0.09871644577983012
km,M_nadph_c,R_ICDHyr,1.8171735922151488e-07
km,M_nh4_c,R_GLNS,0.007362079929064677
km,M_nh4_c,R_GLUDy,0.00010665404564538106
km,M_nh4_c,R_NH4t,0.0004246647926864526
km,M_nh4_e,R_NH4t,0.008464708738418146
km,M_o2_c,R_CYTBD,0.0035120488150101165
km,M_o2_c,R_O2t,3.3466990507560095e-05
km,M_o2_e,R_O2t,0.2528298868491767
km,M_oaa_c,R_CS,0.010836653951604656
km,M_oaa_c,R_MDH,0.001566742272827636
km,M_pep_c,R_ENO,8.830657183825355e-05
km,M_pep_c,R_GLCpts,0.010639163384201691
km,M_pep_c,R_PYK,0.0006630561378066784
km,M_pi_c,R_ATPS4r,1.934187388991342e-05
km,M_pi_c,R_GAPD,5.596461952705118e-05
km,M_pi_c,R_GLNS,0.03947476504215683
km,M_pi_c,R_PIt2r,0.016606214386159057
km,M_pi_c,R_SUCOAS,0.0009547700376909505
km,M_pi_e,R_PIt2r,0.0004415576818494664
km,M_pyr_c,R_GLCpts,0.0006655351049763693
km,M_pyr_c,R_PDH,2.4566732107751357e-05
km,M_pyr_c,R_PYK,0.001217229498483649
km,M_q8_c,R_CYTBD,0.00018277466845790716
km,M_q8_c,R_NADH16,0.0005659816841232088
km,M_q8_c,R_SUCDi,0.00023868492452197676
km,M_q8h2_c,R_CYTBD,0.017190603781520257
km,M_q8h2_c,R_NADH16,4.9315193805953895e-05
km,M_q8h2_c,R_SUCDi,0.0190571918255394
km,M_r5p_c,R_RPI,0.0001844039408591029
km,M_r5p_c,R_TKT1,0.12057269424291935
km,M_ru5p_D_c,R_GND,0.0014180159543476683
km,M_ru5p_D_c,R_RPE,0.007490894368129325
km,M_ru5p_D_c,R_RPI,0.00016726447558149354
km,M_s7p_c,R_TALA,0.014787433366572561
km,M_s7p_c,R_TKT1,3.791284191192678e-05
km,M_succ_c,R_ICL,0.009737977009527653
km,M_succ_c,R_SUCDi,0.0003373377207450223
km,M_succ_c,R_SUCOAS,0.028301165111952794
km,M_succoa_c,R_AKGDH,0.0009702190393517588
km,M_succoa_c,R_SUCOAS,9.496754476142945e-05
km,M_xu5p_D_c,R_RPE,6.154806078240615e-05
km,M_xu5p_D_c,R_TKT1,0.0016773829138130227
km,M_xu5p_D_c,R_TKT2,0.00907325035513026
km_tot_rate,,R_CO2t,15.705512302034899
km_tot_rate,,R_H2Ot,3.623649758482813e-06
km_tot_rate,,R_O2t,0.608041631157029
kv,,R_ACONTa,5.125380470610845
kv,,R_ACONTb,11.012267983121742
kv,,R_AKGDH,2.9704328618607603
kv,,R_ATPS4r,10.047809922492293
kv,,R_CO2t,9.852185412377516
kv,,R_CS,15.33507816748887
kv,,R_CYTBD,10.814095056283515
kv,,R_ENO,15.993779931894828
kv,,R_FBA,8.436116641354067
kv,,R_FUM,11.927798156489159
kv,,R_G6PDH2r,5.470761257773759
kv,,R_GAPD,13.559638854183515
kv,,R_GLCpts,8.968473958250714
kv,,R_GLNS,9.595040504870221
kv,,R_GLUDy,1.0404992131700002
kv,,R_GND,9.989151408102893
kv,,R_H2Ot,7.743581527956258
kv,,R_ICDHyr,3.670890805295703
kv,,R_ICL,7.159452550805919
kv,,R_MALS,30.91199548420319
kv,,R_MDH,2.6164059789873884
kv,,R_NADH16,8.295475469671542
kv,,R_NH4t,7.690606475220424
kv,,R_O2t,5.044829490077619
kv,,R_PDH,4.938785275297011
kv,,R_PFK,17.749530971213336
kv,,R_PGI,9.060365002787163
kv,,R_PGK,17.69110415131118
kv,,R_PGL,6.443269393788486
kv,,R_PGM,13.028332805944663
kv,,R_PIt2r,8.749374351094984
kv,,R_PYK,9.488056346977707
kv,,R_RPE,3.2545145838189202
kv,,R_RPI,13.156439316460006
kv,,R_SUCDi,18.517857266459686
kv,,R_SUCOAS,6.753660071682205
kv,,R_TALA,2.0516081040873946
kv,,R_TKT1,6.858542006498175
kv,,R_TKT2,12.320166611783165
kv,,R_TPI,15.356163926137159
mu,M_13dpg_c,,-2198.2474910037167
mu,M_2pg_c,,-1342.3676725908217
mu,M_3pg_c,,-1340.0009383537522
mu,M_6pgc_c,,-1567.644668176265
mu,M_6pgl_c,,-1388.0212277891462
mu,M_accoa_c,,-1847.7985317015718
mu,M_acon_C_c,,-816.4963513120337
mu,M_adp_c,,-1423.412171701522
mu,M_akg_c,,-632.9954456383537
mu,M_atp_c,,-2301.311276855002
mu,M_cit_c,,-960.160653177173
mu,M_co2_c,,-387.3688923291025
mu,M_co2_e,,-387.3711802418113
mu,M_coa_c,,-1788.3937369686703
mu,M_dhap_c,,-1094.9726761499296
mu,M_e4p_c,,-1158.9089827435525
mu,M_f6p_c,,-1320.2408760077421
mu,M_fdp_c,,-2197.439934407134
mu,M_fum_c,,-520.8968697000923
mu,M_g3p_c,,-1091.5308236956382
mu,M_g6p_c,,-1320.583336419526
mu,M_glc_D_e,,-434.758303402778
mu,M_gln_L_c,,-120.59608391876128
mu,M_glu_L_c,,-370.40842984406004
mu,M_glx_c,,-432.3984620997905
mu,M_h2o_c,,-162.8677426813153
mu,M_h2o_e,,-162.86640761854338
mu,M_h_c,,4.532827784181982
mu,M_h_e,,18.597878711721663
mu,M_icit_c,,-960.578684403013
mu,M_mal_L_c,,-683.031207872317
mu,M_nad_c,,-1202.9737334450933
mu,M_nadh_c,,-1139.2732778676104
mu,M_nadp_c,,-2088.544635368635
mu,M_nadph_c,,-2026.0510661322464
mu,M_nh4_c,,87.75091042641243
mu,M_nh4_e,,87.83872810094756
mu,M_o2_c,,16.410988514566768
mu,M_o2_e,,16.414745642587395
mu,M_oaa_c,,-716.2938291271951
mu,M_pep_c,,-1196.5283520660207
mu,M_pi_c,,-1053.9080900238248
mu,M_pi_e,,-1054.2094991567349
mu,M_pyr_c,,-348.09210174557734
mu,M_q8_c,,707.9335561673578
mu,M_q8h2_c,,686.9319522421368
mu,M_r5p_c,,-1236.2712711121394
mu,M_ru5p_D_c,,-1234.1619848028238
mu,M_s7p_c,,-1388.440129823215
mu,M_succ_c,,-520.5913002060843
mu,M_succoa_c,,-2125.3348437838436
mu,M_xu5p_D_c,,-1237.1324372144536
mu_p,M_13dpg_c,,-2215.305401176434
mu_p,M_2pg_c,,-1339.0143409089967
mu_p,M_3pg_c,,-1338.9136331997552
mu_p,M_6pgc_c,,-1564.5848220714038
mu_p,M_6pgl_c,,-1405.328159581717
mu_p,M_accoa_c,,-1852.2459052548388
mu_p,M_acon_C_c,,-826.7419855166668
mu_p,M_adp_c,,-1425.9080238357926
mu_p,M_akg_c,,-635.0499591614309
mu_p,M_atp_c,,-2302.3970909195955
mu_p,M_cit_c,,-962.1818917111407
mu_p,M_co2_c,,-398.80376813535935
mu_p,M_co2_e,,-398.9049031891245
mu_p,M_coa_c,,-1788.6712074521038
mu_p,M_dhap_c,,-1097.4326691406309
mu_p,M_e4p_c,,-1174.7918519067878
mu_p,M_f6p_c,,-1325.011561531773
mu_p,M_fdp_c,,-2194.8664283806447
mu_p,M_fum_c,,-527.7403621776118
mu_p,M_g3p_c,,-1097.5329552384228
mu_p,M_g6p_c,,-1324.9106612239916
mu_p,M_glc_D_e,,-430.7402577821402
mu_p,M_gln_L_c,,-119.41230311767264
mu_p,M_glu_L_c,,-359.4442016341094
mu_p,M_glx_c,,-450.5916722491858
mu_p,M_h2o_c,,-135.54028881105347
mu_p,M_h2o_e,,-135.63997435762306
mu_p,M_h_c,,-18.470812471408358
mu_p,M_h_e,,-4.356256235261668
mu_p,M_icit_c,,-970.1162945838076
mu_p,M_mal_L_c,,-681.7569428907817
mu_p,M_nad_c,,-1201.1967227964378
mu_p,M_nadh_c,,-1145.3802542196909
mu_p,M_nadp_c,,-2094.1842395682183
mu_p,M_nadph_c,,-2030.5485975378906
mu_p,M_nh4_c,,94.99950856304274
mu_p,M_nh4_e,,95.09998808433514
mu_p,M_o2_c,,12.913839833512577
mu_p,M_o2_e,,13.013484077230576
mu_p,M_oaa_c,,-725.05426985338
mu_p,M_pep_c,,-1203.5741042422628
mu_p,M_pi_c,,-1049.9152604347037
mu_p,M_pi_e,,-1043.8902934395978
mu_p,M_pyr_c,,-345.654779140493
mu_p,M_q8_c,,690.5624512139341
mu_p,M_q8h2_c,,669.6646783372719
mu_p,M_r5p_c,,-1251.9504825318588
mu_p,M_ru5p_D_c,,-1247.5541571542783
mu_p,M_s7p_c,,-1402.171723102495
mu_p,M_succ_c,,-519.6260371069206
mu_p,M_succoa_c,,-2128.8654320827436
mu_p,M_xu5p_D_c,,-1247.6530039699894
u,,R_ACONTa,3.998515827645301e-10
u,,R_ACONTb,1.3059272578559263e-10
u,,R_AKGDH,5.9060327011218155e-09
u,,R_ATPS4r,3.1077125167051484e-09
u,,R_CO2t,1.484806348433796e-09
u,,R_CS,4.048554065589113e-09
u,,R_CYTBD,1.984867029732872e-13
u,,R_ENO,5.29427287073435e-10
u,,R_FBA,1.6418251764634988e-09
u,,R_FUM,4.1663512183141923e-10
u,,R_G6PDH2r,4.935005911523247e-09
u,,R_GAPD,2.7027713147643406e-10
u,,R_GLCpts,1.4861542006673348e-09
u,,R_GLNS,2.0766788967736352e-08
u,,R_GLUDy,6.00460483634617e-08
u,,R_GND,7.045056478042398e-12
u,,R_H2Ot,3.060681444176083e-11
u,,R_ICDHyr,2.354027558769925e-10
u,,R_ICL,3.6460407223073933e-10
u,,R_MALS,3.81902705976815e-09
u,,R_MDH,3.9470624902052775e-10
u,,R_NADH16,1.8467630008842607e-11
u,,R_NH4t,6.0576708212071636e-09
u,,R_O2t,6.650000948983235e-12
u,,R_PDH,1.0424082590486696e-08
u,,R_PFK,7.073735394302511e-11
u,,R_PGI,2.5263490751327336e-15
u,,R_PGK,2.3869480286144648e-12
u,,R_PGL,4.664881404758252e-11
u,,R_PGM,1.4394680500163083e-09
u,,R_PIt2r,5.4493779695563085e-09
u,,R_PYK,2.4862279933256726e-09
u,,R_RPE,1.607023015092825e-12
u,,R_RPI,7.234043839360801e-09
u,,R_SUCDi,7.428886589898794e-13
u,,R_SUCOAS,1.0968395103149412e-09
u,,R_TALA,1.2107110793849836e-12
u,,R_TKT1,3.7127628351259234e-10
u,,R_TKT2,4.306721688565924e-10
u,,R_TPI,2.0723405285879657e-10
u_v,,R_ACONTa,567.0512546721473
u_v,,R_ACONTb,10.248904279279463
u_v,,R_AKGDH,2.2987662865635055e-07
u_v,,R_ATPS4r,3180.8690487387225
u_v,,R_CS,7.667310504239147e-05
u_v,,R_CYTBD,8.475533784574218e-05
u_v,,R_ENO,22884.496033058334
u_v,,R_FBA,1.598157216806185
u_v,,R_FUM,7.195736933105925e-05
u_v,,R_G6PDH2r,7.731676988553446e-05
u_v,,R_GAPD,0.20768798916196135
u_v,,R_GLCpts,4.338918621758986e-06
u_v,,R_GLNS,1.4795592511370776e-05
u_v,,R_GLUDy,9.134081797363486
u_v,,R_GND,0.005411076423697263
u_v,,R_ICDHyr,0.4899849777019893
u_v,,R_ICL,0.17145138511509336
u_v,,R_MALS,0.0001813610210724905
u_v,,R_MDH,1.087886334393556
u_v,,R_NADH16,0.40103332047561413
u_v,,R_NH4t,0.15313947608226766
u_v,,R_PDH,9.148502647849942e-06
u_v,,R_PFK,0.07354513029752749
u_v,,R_PGI,0.0705451268749464
u_v,,R_PGK,0.3350430311036801
u_v,,R_PGL,0.015573188673003259
u_v,,R_PGM,3.310597558548358
u_v,,R_PIt2r,0.011468870773912438
u_v,,R_PYK,0.14600536229566327
u_v,,R_RPE,0.5035792501996477
u_v,,R_RPI,0.000889637055681722
u_v,,R_SUCDi,0.0005175122499983877
u_v,,R_SUCOAS,0.0021765036331811575
u_v,,R_TALA,0.13235413733129545
u_v,,R_TKT1,0.9760101421468617
u_v,,R_TKT2,1.118057940154716
u_v,,R_TPI,0.10897236148871876
vmax_prod,,R_ACONTa,2.0646448243220287e-05
vmax_prod,,R_ACONTb,4.907680372965638e-13
vmax_prod,,R_AKGDH,0.001395873663346199
vmax_prod,,R_ATPS4r,1.0913703882118702e-09
vmax_prod,,R_CO2t,1.2724539689460617e-09
vmax_prod,,R_CS,1.747827523495137e-06
vmax_prod,,R_CYTBD,0.004883203546730226
vmax_prod,,R_ENO,0.0020005503327171414
vmax_prod,,R_FBA,4.332159162764215e-10
vmax_prod,,R_FUM,1.6731825453688735e-07
vmax_prod,,R_G6PDH2r,2.821746173893119e-06
vmax_prod,,R_GAPD,7.8746078499681e-11
vmax_prod,,R_GLCpts,2.1152626099671633e-05
vmax_prod,,R_GLNS,8.332025003923893e-07
vmax_prod,,R_GLUDy,2.860166491150368e-10
vmax_prod,,R_GND,2.3609539772179792e-11
vmax_prod,,R_H2Ot,6.834874153895065e-10
vmax_prod,,R_ICDHyr,6.747122793893041e-09
vmax_prod,,R_ICL,2.903728068897648e-10
vmax_prod,,R_MALS,9.129691027211307e-07
vmax_prod,,R_MDH,2.0775164081287012e-12
vmax_prod,,R_NADH16,7.700803367778457e-12
vmax_prod,,R_NH4t,2.1168721239996158e-07
vmax_prod,,R_O2t,2.918106736365086e-09
vmax_prod,,R_PDH,1.7925745090574534e-05
vmax_prod,,R_PFK,5.481057383295951e-07
vmax_prod,,R_PGI,1.0563832733055844e-14
vmax_prod,,R_PGK,1.581380375169925e-11
vmax_prod,,R_PGL,3.8933591106588006e-11
vmax_prod,,R_PGM,6.201026152996828e-07
vmax_prod,,R_PIt2r,2.4071015518205882e-08
vmax_prod,,R_PYK,1.1848344548834696e-07
vmax_prod,,R_RPE,1.0465938103242376e-10
vmax_prod,,R_RPI,6.547363129184938e-08
vmax_prod,,R_SUCDi,4.2934374889868165e-11
vmax_prod,,R_SUCOAS,2.44582866551062e-08
vmax_prod,,R_TALA,2.0781719750490183e-12
vmax_prod,,R_TKT1,1.4620177935247438e-07
vmax_prod,,R_TKT2,5.13633320924402e-07
vmax_prod,,R_TPI,5.278678931125307e-09
