{
  "bounds": {
    "R_ACALD": [
      -1000.0,
      1000.0
    ],
    "R_ACALDt": [
      -1000.0,
      1000.0
    ],
    "R_ACKr": [
      -1000.0,
      1000.0
    ],
    "R_ACONTa": [
      -1000.0,
      1000.0
    ],
    "R_ACONTb": [
      -1000.0,
      1000.0
    ],
    "R_ACt2r": [
      -1000.0,
      1000.0
    ],
    "R_ADK1": [
      -1000.0,
      1000.0
    ],
    "R_AKGDH": [
      0.0,
      1000.0
    ],
    "R_AKGt2r": [
      -1000.0,
      1000.0
    ],
    "R_ALCD2x": [
      -1000.0,
      1000.0
    ],
    "R_ATPM": [
      8.39,
      1000.0
    ],
    "R_ATPS4r": [
      -1000.0,
      1000.0
    ],
    "R_Biomass_Ecoli_core_w_GAM": [
      0.0,
      1000.0
    ],
    "R_CO2t": [
      -1000.0,
      1000.0
    ],
    "R_CS": [
      0.0,
      1000.0
    ],
    "R_CYTBD": [
      0.0,
      1000.0
    ],
    "R_D_LACt2": [
      -1000.0,
      1000.0
    ],
    "R_ENO": [
      -1000.0,
      1000.0
    ],
    "R_ETOHt2r": [
      -1000.0,
      1000.0
    ],
    "R_EX_ac_e": [
      0.0,
      1000.0
    ],
    "R_EX_acald_e": [
      0.0,
      1000.0
    ],
    "R_EX_akg_e": [
      0.0,
      1000.0
    ],
    "R_EX_co2_e": [
      -1000.0,
      1000.0
    ],
    "R_EX_etoh_e": [
      0.0,
      1000.0
    ],
    "R_EX_for_e": [
      0.0,
      1000.0
    ],
    "R_EX_fru_e": [
      0.0,
      1000.0
    ],
    "R_EX_fum_e": [
      0.0,
      1000.0
    ],
    "R_EX_glc_e": [
      -10.0,
      1000.0
    ],
    "R_EX_gln_L_e": [
      0.0,
      1000.0
    ],
    "R_EX_glu_L_e": [
      0.0,
      1000.0
    ],
    "R_EX_h2o_e": [
      -1000.0,
      1000.0
    ],
    "R_EX_h_e": [
      -1000.0,
      1000.0
    ],
    "R_EX_lac_D_e": [
      0.0,
      1000.0
    ],
    "R_EX_mal_L_e": [
      0.0,
      1000.0
    ],
    "R_EX_nh4_e": [
      -1000.0,
      1000.0
    ],
    "R_EX_o2_e": [
      -1000.0,
      1000.0
    ],
    "R_EX_pi_e": [
      -1000.0,
      1000.0
    ],
    "R_EX_pyr_e": [
      0.0,
      1000.0
    ],
    "R_EX_succ_e": [
      0.0,
      1000.0
    ],
    "R_FBA": [
      -1000.0,
      1000.0
    ],
    "R_FBP": [
      0.0,
      1000.0
    ],
    "R_FORt2": [
      0.0,
      1000.0
    ],
    "R_FORti": [
      0.0,
      1000.0
    ],
    "R_FRD7": [
      0.0,
      1000.0
    ],
    "R_FRUpts2": [
      0.0,
      1000.0
    ],
    "R_FUM": [
      -1000.0,
      1000.0
    ],
    "R_FUMt2_2": [
      0.0,
      1000.0
    ],
    "R_G6PDH2r": [
      -1000.0,
      1000.0
    ],
    "R_GAPD": [
      -1000.0,
      1000.0
    ],
    "R_GLCpts": [
      0.0,
      1000.0
    ],
    "R_GLNS": [
      0.0,
      1000.0
    ],
    "R_GLNabc": [
      0.0,
      1000.0
    ],
    "R_GLUDy": [
      -1000.0,
      1000.0
    ],
    "R_GLUN": [
      0.0,
      1000.0
    ],
    "R_GLUSy": [
      0.0,
      1000.0
    ],
    "R_GLUt2r": [
      -1000.0,
      1000.0
    ],
    "R_GND": [
      0.0,
      1000.0
    ],
    "R_H2Ot": [
      -1000.0,
      1000.0
    ],
    "R_ICDHyr": [
      -1000.0,
      1000.0
    ],
    "R_ICL": [
      0.0,
      1000.0
    ],
    "R_LDH_D": [
      -1000.0,
      1000.0
    ],
    "R_MALS": [
      0.0,
      1000.0
    ],
    "R_MALt2_2": [
      0.0,
      1000.0
    ],
    "R_MDH": [
      -1000.0,
      1000.0
    ],
    "R_ME1": [
      0.0,
      1000.0
    ],
    "R_ME2": [
      0.0,
      1000.0
    ],
    "R_NADH16": [
      0.0,
      1000.0
    ],
    "R_NADTRHD": [
      0.0,
      1000.0
    ],
    "R_NH4t": [
      -1000.0,
      1000.0
    ],
    "R_O2t": [
      -1000.0,
      1000.0
    ],
    "R_PDH": [
      0.0,
      1000.0
    ],
    "R_PFK": [
      0.0,
      1000.0
    ],
    "R_PFL": [
      0.0,
      1000.0
    ],
    "R_PGI": [
      -1000.0,
      1000.0
    ],
    "R_PGK": [
      -1000.0,
      1000.0
    ],
    "R_PGL": [
      0.0,
      1000.0
    ],
    "R_PGM": [
      -1000.0,
      1000.0
    ],
    "R_PIt2r": [
      -1000.0,
      1000.0
    ],
    "R_PPC": [
      0.0,
      1000.0
    ],
    "R_PPCK": [
      0.0,
      1000.0
    ],
    "R_PPS": [
      0.0,
      1000.0
    ],
    "R_PTAr": [
      -1000.0,
      1000.0
    ],
    "R_PYK": [
      0.0,
      1000.0
    ],
    "R_PYRt2r": [
      -1000.0,
      1000.0
    ],
    "R_RPE": [
      -1000.0,
      1000.0
    ],
    "R_RPI": [
      -1000.0,
      1000.0
    ],
    "R_SUCCt2_2": [
      0.0,
      1000.0
    ],
    "R_SUCCt3": [
      0.0,
      1000.0
    ],
    "R_SUCDi": [
      0.0,
      1000.0
    ],
    "R_SUCOAS": [
      -1000.0,
      1000.0
    ],
    "R_TALA": [
      -1000.0,
      1000.0
    ],
    "R_THD2": [
      0.0,
      1000.0
    ],
    "R_TKT1": [
      -1000.0,
      1000.0
    ],
    "R_TKT2": [
      -1000.0,
      1000.0
    ],
    "R_TPI": [
      -1000.0,
      1000.0
    ]
  },
  "objective": {
    "direction": "max",
    "reactions": {
      "R_Biomass_Ecoli_core_w_GAM": 1.0
    }
  }
}