parameter_type,metabolite,reaction,value
A,,R_ATPS4r,0.09988347765511207
A,,R_CO2t,-0.10094429541118188
A,,R_CYTBD,91.14027688295346
A,,R_GLCpts,36.244036157582244
A,,R_H2Ot,-0.09907534413219565
A,,R_NADH16,14.990668541092532
A,,R_NADTRHD,10.03621686808583
A,,R_NH4t,0.1001336981632095
A,,R_O2t,0.10037884794377439
A,,R_PDH,59.53464895745606
A,,R_PGI,0.10167268828672604
A,,R_PIt2r,20.146848139087417
A,,R_PYK,0.09944496120874646
A,,R_PYRt2r,-4.4058290956125
A,,R_RPE,0.09866747998898973
A,,R_RPI,-6.389086663081285
A,,R_TKT2,0.09916862836689688
A,,R_lumped_0,35.99601602314942
A,,R_lumped_1,62.83202234674445
A,,R_lumped_10,0.1004872104852268
A,,R_lumped_2,57.02151086629601
A,,R_lumped_3,108.11815507020992
A,,R_lumped_4,0.10126794549191853
A,,R_lumped_5,32.78879626204728
A,,R_lumped_6,6.204829320927729
A,,R_lumped_7,90.77884111592539
A,,R_lumped_8,35.772684848169774
A,,R_lumped_9,574.8457251977088
R,,,0.008314
T,,,300.0
c,M_3pg_c,,1.5818923383747345
c,M_accoa_c,,0.16976950623725548
c,M_adp_c,,0.36731190645887796
c,M_akg_c,,0.44177825726004455
c,M_atp_c,,0.640609317266638
c,M_co2_c,,0.01012646251174323
c,M_co2_e,,0.009722284962371097
c,M_coa_c,,0.901912385266732
c,M_e4p_c,,0.0017512491737936829
c,M_etoh_c,,0.0009586708520751931
c,M_f6p_c,,0.14720800620407692
c,M_g3p_c,,0.11980809533078259
c,M_g6p_c,,0.17560825518673046
c,M_glc_D_e,,5.0318441519368315
c,M_gln_L_c,,1.6025566804733715
c,M_glu_L_c,,79.18978879107138
c,M_h2o_c,,56549.76995131846
c,M_h2o_e,,54360.28962067002
c,M_h_c,,9.993694336189523e-05
c,M_h_e,,0.00010013563467407056
c,M_nad_c,,1.9983830705505121
c,M_nadh_c,,0.08587902098256504
c,M_nadp_c,,0.10541177261685022
c,M_nadph_c,,0.1660038122404826
c,M_nh4_c,,18.37369285266377
c,M_nh4_e,,18.65812666308184
c,M_o2_c,,0.2453978944732719
c,M_o2_e,,0.2551313732511559
c,M_oaa_c,,0.029808544219526653
c,M_pep_c,,0.05844026482418294
c,M_pi_c,,5.000996830217286
c,M_pi_e,,64.96159371381931
c,M_pyr_c,,2.6469750544059973
c,M_pyr_e,,0.001003908811324019
c,M_q8_c,,0.0009589717772464146
c,M_q8h2_c,,0.0009619320568387584
c,M_r5p_c,,0.0016181639986717594
c,M_ru5p_D_c,,0.00898768664859068
c,M_xu5p_D_c,,0.026863674822861942
kcat_prod,,R_ATPS4r,0.03602029275538284
kcat_prod,,R_CO2t,1.2612447653968768
kcat_prod,,R_CYTBD,6124723920.371797
kcat_prod,,R_GLCpts,491.80310201614725
kcat_prod,,R_H2Ot,1.1946925891440454
kcat_prod,,R_NADH16,43.54511221092085
kcat_prod,,R_NADTRHD,55.98524955667205
kcat_prod,,R_NH4t,3.0502851152979145
kcat_prod,,R_O2t,3.82233216316278
kcat_prod,,R_PDH,6155.338875640832
kcat_prod,,R_PGI,494.46359844785275
kcat_prod,,R_PIt2r,0.6550031975917056
kcat_prod,,R_PYK,3582467.1523070433
kcat_prod,,R_PYRt2r,1.7438000208771758
kcat_prod,,R_RPE,54.156245675158424
kcat_prod,,R_RPI,196.62382911952227
kcat_prod,,R_TKT2,61823.82885958612
kcat_prod,,R_lumped_0,119.9433872951125
kcat_prod,,R_lumped_1,177.7538065430943
kcat_prod,,R_lumped_10,851.5753939191313
kcat_prod,,R_lumped_2,38.980170231507756
kcat_prod,,R_lumped_3,9.258277905793033
kcat_prod,,R_lumped_4,1003.5000356488555
kcat_prod,,R_lumped_5,7863.983284610643
kcat_prod,,R_lumped_6,20.397711582198667
kcat_prod,,R_lumped_7,1462.9448689185203
kcat_prod,,R_lumped_8,0.8345203129216908
kcat_prod,,R_lumped_9,10186283.438965822
kcat_sub,,R_ATPS4r,3809.382897427348
kcat_sub,,R_CO2t,9.289680334165832
kcat_sub,,R_CYTBD,3.4872679071876606e-08
kcat_sub,,R_GLCpts,1.5009849430408226
kcat_sub,,R_H2Ot,20.629034076187267
kcat_sub,,R_NADH16,1.2437549101053755
kcat_sub,,R_NADTRHD,0.08932530867287998
kcat_sub,,R_NH4t,23.6356053222485
kcat_sub,,R_O2t,35.40802107138983
kcat_sub,,R_PDH,0.03942740217259977
kcat_sub,,R_PGI,0.08530791586640994
kcat_sub,,R_PIt2r,127.5588316237427
kcat_sub,,R_PYK,1.9179262236667057e-05
kcat_sub,,R_PYRt2r,13.36180033779798
kcat_sub,,R_RPE,3.5337786127574122
kcat_sub,,R_RPI,0.6152326726052082
kcat_sub,,R_TKT2,0.00040697157440352356
kcat_sub,,R_lumped_0,1.1651063296698676
kcat_sub,,R_lumped_1,0.18908049569579588
kcat_sub,,R_lumped_10,0.2639542788129952
kcat_sub,,R_lumped_2,1.1521522093836907
kcat_sub,,R_lumped_3,4.3923917900171805
kcat_sub,,R_lumped_4,0.016151710882580234
kcat_sub,,R_lumped_5,0.006686051134869211
kcat_sub,,R_lumped_6,2.2418233325712382
kcat_sub,,R_lumped_7,0.07300496848404849
kcat_sub,,R_lumped_8,22.586094533421612
kcat_sub,,R_lumped_9,6.653277816855787e-06
keq,,R_ATPS4r,203773620.41171077
keq,,R_CO2t,1.0002598003238528
keq,,R_CYTBD,8.460324540700989e+20
keq,,R_GLCpts,3233929.976383483
keq,,R_H2Ot,0.9997649516548698
keq,,R_NADH16,95762056.37826635
keq,,R_NADTRHD,1.5258192679930715
keq,,R_NH4t,1.0250944221629446
keq,,R_O2t,1.0013481658694787
keq,,R_PDH,719265.3884073712
keq,,R_PGI,0.8731521540209364
keq,,R_PIt2r,247.4810078756908
keq,,R_PYK,822593.714802663
keq,,R_PYRt2r,449.82365942957716
keq,,R_RPE,3.1095507849606348
keq,,R_RPI,0.4286930115236866
keq,,R_TKT2,390.0961328185448
keq,,R_lumped_0,0.006707861905528131
keq,,R_lumped_1,193.45153323425046
keq,,R_lumped_10,6.174309946871997
keq,,R_lumped_2,5.440129733616353e-05
keq,,R_lumped_3,5222.389561051014
keq,,R_lumped_4,2175.7001796667314
keq,,R_lumped_5,535101079.04822576
keq,,R_lumped_6,6.723640539377411e-05
keq,,R_lumped_7,1.454156266081072
keq,,R_lumped_8,33.49110711909178
keq,,R_lumped_9,2.5638216181824452e+216
km,M_3pg_c,R_lumped_4,0.001002770523985899
km,M_3pg_c,R_lumped_8,0.0065058950804669155
km,M_accoa_c,R_PDH,0.002447881748829424
km,M_accoa_c,R_lumped_0,0.0023070134487984044
km,M_accoa_c,R_lumped_1,0.004946408510103244
km,M_adp_c,R_ATPS4r,0.0001902074238734534
km,M_adp_c,R_PYK,0.012658439538114461
km,M_adp_c,R_lumped_2,0.005497270068850109
km,M_adp_c,R_lumped_3,0.005286021729521601
km,M_adp_c,R_lumped_6,0.017098111189675767
km,M_adp_c,R_lumped_8,9.159398609257194e-07
km,M_adp_c,R_lumped_9,0.00015268608920170675
km,M_akg_c,R_lumped_1,4.216976647928996e-05
km,M_akg_c,R_lumped_3,0.002553280100605721
km,M_akg_c,R_lumped_9,0.03637341827150506
km,M_atp_c,R_ATPS4r,0.4091552487087837
km,M_atp_c,R_PYK,0.0035494729003833427
km,M_atp_c,R_lumped_2,0.02795043699418724
km,M_atp_c,R_lumped_3,0.0003014343710203631
km,M_atp_c,R_lumped_6,0.0007081852849676871
km,M_atp_c,R_lumped_8,0.010892190646030073
km,M_atp_c,R_lumped_9,0.00017717166600151875
km,M_co2_c,R_CO2t,0.0014296385573973449
km,M_co2_c,R_PDH,3.0114091027647816
km,M_co2_c,R_lumped_1,0.011336520465076683
km,M_co2_c,R_lumped_3,0.004520877651895987
km,M_co2_c,R_lumped_7,0.0006819078312550423
km,M_co2_c,R_lumped_9,0.24211973374733878
km,M_co2_e,R_CO2t,0.00019404928388463722
km,M_coa_c,R_PDH,0.19485868502196893
km,M_coa_c,R_lumped_0,0.00037437790109332844
km,M_coa_c,R_lumped_1,7.27877460711153e-05
km,M_e4p_c,R_TKT2,0.2862986760115797
km,M_e4p_c,R_lumped_10,0.00017415094563302816
km,M_etoh_c,R_lumped_0,0.012735270200134563
km,M_etoh_c,R_lumped_5,0.0003909560406784582
km,M_f6p_c,R_PGI,5.554319893674475e-06
km,M_f6p_c,R_TKT2,0.006257641951454734
km,M_f6p_c,R_lumped_10,0.00012373849352263292
km,M_f6p_c,R_lumped_6,0.007155326030249499
km,M_g3p_c,R_TKT2,7.610659224927547e-05
km,M_g3p_c,R_lumped_6,0.0014306930533060514
km,M_g3p_c,R_lumped_8,0.00040263486582429813
km,M_g6p_c,R_GLCpts,0.00010073219411163117
km,M_g6p_c,R_PGI,0.03687108792512197
km,M_g6p_c,R_lumped_7,0.008252793354896995
km,M_glc_D_e,R_GLCpts,0.000353796171541145
km,M_gln_L_c,R_lumped_9,0.00040775928288447366
km,M_glu_L_c,R_lumped_9,0.010825039562615876
km,M_h2o_c,R_ATPS4r,0.0010918139740470295
km,M_h2o_c,R_CYTBD,0.007286131656602636
km,M_h2o_c,R_H2Ot,0.014863894657222345
km,M_h2o_c,R_lumped_1,0.0010754544011023382
km,M_h2o_c,R_lumped_2,0.00017281703520077038
km,M_h2o_c,R_lumped_3,0.0005218248291946936
km,M_h2o_c,R_lumped_4,0.013556535110256592
km,M_h2o_c,R_lumped_7,0.0001322267564174512
km,M_h2o_c,R_lumped_9,0.0005496086214996226
km,M_h2o_e,R_H2Ot,0.0008610175176617277
km,M_h_c,R_ATPS4r,0.027939605457480917
km,M_h_c,R_CYTBD,0.020418301213339585
km,M_h_c,R_NADH16,2.3524501684627855e-05
km,M_h_c,R_PIt2r,1.3191675560964362
km,M_h_c,R_PYK,1.172101409842572
km,M_h_c,R_PYRt2r,0.004346511142005727
km,M_h_c,R_lumped_0,0.0002304187335886552
km,M_h_c,R_lumped_1,0.005737794411999751
km,M_h_c,R_lumped_2,0.0008944551104452096
km,M_h_c,R_lumped_3,0.03063896240917734
km,M_h_c,R_lumped_5,0.0022295206513656468
km,M_h_c,R_lumped_6,0.0005125068287144497
km,M_h_c,R_lumped_7,0.0010978242205177476
km,M_h_c,R_lumped_8,4.2034524399293294e-05
km,M_h_c,R_lumped_9,0.6357808600227141
km,M_h_e,R_ATPS4r,6.671528284773376e-05
km,M_h_e,R_CYTBD,0.005613347298078295
km,M_h_e,R_NADH16,0.0026692228253661784
km,M_h_e,R_PIt2r,8.893359300855093e-05
km,M_h_e,R_PYRt2r,0.000741415118096511
km,M_h_e,R_lumped_5,0.0003965540284246439
km,M_nad_c,R_NADH16,0.00018990400925096397
km,M_nad_c,R_NADTRHD,0.0010354962006647332
km,M_nad_c,R_PDH,0.008626351363610035
km,M_nad_c,R_lumped_0,0.0003781297440402783
km,M_nad_c,R_lumped_3,0.0012195820736964505
km,M_nad_c,R_lumped_8,0.0003072885576808055
km,M_nadh_c,R_NADH16,0.034225806644429924
km,M_nadh_c,R_NADTRHD,0.00020782678050519952
km,M_nadh_c,R_PDH,0.003408220065768647
km,M_nadh_c,R_lumped_0,0.0001284912665621213
km,M_nadh_c,R_lumped_3,0.0062587374406170735
km,M_nadh_c,R_lumped_8,0.000584507416317039
km,M_nadp_c,R_NADTRHD,0.0003900613427191953
km,M_nadp_c,R_lumped_1,0.0007424298109067374
km,M_nadp_c,R_lumped_7,0.013990755749443603
km,M_nadp_c,R_lumped_9,0.0002843611987997862
km,M_nadph_c,R_NADTRHD,0.03215747269181319
km,M_nadph_c,R_lumped_1,0.024950599568121408
km,M_nadph_c,R_lumped_7,0.0003026334403872133
km,M_nadph_c,R_lumped_9,0.007323146600674556
km,M_nh4_c,R_NH4t,0.0014515443181870589
km,M_nh4_c,R_lumped_9,0.00045085526111990576
km,M_nh4_e,R_NH4t,0.00018274274149921585
km,M_o2_c,R_CYTBD,0.00247510665350466
km,M_o2_c,R_O2t,0.0021345591125234197
km,M_o2_e,R_O2t,0.0002301176071318292
km,M_oaa_c,R_lumped_1,0.0005882238319657341
km,M_oaa_c,R_lumped_3,0.019051592243152143
km,M_oaa_c,R_lumped_9,0.000262491623767508
km,M_pep_c,R_GLCpts,2.919170582860098e-06
km,M_pep_c,R_PYK,2.030907117347064
km,M_pep_c,R_lumped_2,0.002198905962947718
km,M_pep_c,R_lumped_4,0.002590317763618566
km,M_pep_c,R_lumped_9,1.0267201413744502
km,M_pi_c,R_ATPS4r,5.365067392897144e-05
km,M_pi_c,R_PIt2r,0.0031832028920833217
km,M_pi_c,R_lumped_2,0.00011395062716272719
km,M_pi_c,R_lumped_3,0.0587653134272486
km,M_pi_c,R_lumped_8,0.005645363553815607
km,M_pi_c,R_lumped_9,3.8412572029613094e-05
km,M_pi_e,R_PIt2r,0.0009796917597137823
km,M_pyr_c,R_GLCpts,0.10119521868041821
km,M_pyr_c,R_PDH,0.0032441845639248758
km,M_pyr_c,R_PYK,3.7385795309270245e-05
km,M_pyr_c,R_PYRt2r,2.2040643124931103
km,M_pyr_c,R_lumped_2,0.0009441247016726707
km,M_pyr_e,R_PYRt2r,0.003748806538820202
km,M_q8_c,R_CYTBD,0.004227142606280814
km,M_q8_c,R_NADH16,0.08610672523120479
km,M_q8_c,R_lumped_3,0.00010759283968203038
km,M_q8h2_c,R_CYTBD,0.00543958979738858
km,M_q8h2_c,R_NADH16,6.387089364237299e-05
km,M_q8h2_c,R_lumped_3,0.0019487325828931124
km,M_r5p_c,R_RPI,0.005580439679292423
km,M_r5p_c,R_lumped_10,0.0008746287221284362
km,M_ru5p_D_c,R_RPE,0.057724570909007664
km,M_ru5p_D_c,R_RPI,7.485452580375027e-06
km,M_ru5p_D_c,R_lumped_7,0.010276318005254024
km,M_xu5p_D_c,R_RPE,0.011712487910808056
km,M_xu5p_D_c,R_TKT2,0.6477893800192128
km,M_xu5p_D_c,R_lumped_10,0.012873981975875989
km_tot_rate,,R_CO2t,15.777072186123215
km_tot_rate,,R_H2Ot,3.6796076033983245e-06
km_tot_rate,,R_O2t,0.6012932047549208
km_tot_rate,,R_lumped_0,0.0
km_tot_rate,,R_lumped_1,4.4533762993221726e-05
km_tot_rate,,R_lumped_10,97.49268586035693
km_tot_rate,,R_lumped_2,0.0
km_tot_rate,,R_lumped_3,2.451553630086116e-05
km_tot_rate,,R_lumped_4,0.0013923899280054765
km_tot_rate,,R_lumped_5,0.0
km_tot_rate,,R_lumped_6,0.5299439874029137
km_tot_rate,,R_lumped_7,0.00011943953155814581
km_tot_rate,,R_lumped_8,0.0022088890932744276
km_tot_rate,,R_lumped_9,1.105325071511652e-06
kv,,R_ATPS4r,11.713884376357681
kv,,R_CO2t,3.4229462008154683
kv,,R_CYTBD,14.614565736927329
kv,,R_GLCpts,27.169634724578227
kv,,R_H2Ot,4.964408739419124
kv,,R_NADH16,7.359310234214997
kv,,R_NADTRHD,2.2362691469897213
kv,,R_NH4t,8.490897190845661
kv,,R_O2t,11.633624447055134
kv,,R_PDH,15.578479430243474
kv,,R_PGI,6.494740876693509
kv,,R_PIt2r,9.140647821386288
kv,,R_PYK,8.289093856890052
kv,,R_PYRt2r,4.82703922793346
kv,,R_RPE,13.83387807934244
kv,,R_RPI,10.998609179667827
kv,,R_TKT2,5.016028405685131
kv,,R_lumped_0,11.821455060168248
kv,,R_lumped_1,5.797394057072652
kv,,R_lumped_10,14.992563788652593
kv,,R_lumped_2,6.70157364015219
kv,,R_lumped_3,6.376988620273925
kv,,R_lumped_4,4.0259461554346325
kv,,R_lumped_5,7.2511374531630235
kv,,R_lumped_6,6.762253008874497
kv,,R_lumped_7,10.334517117373975
kv,,R_lumped_8,4.341492217856661
kv,,R_lumped_9,8.232385659131644
mu,M_3pg_c,,-1349.798660496075
mu,M_accoa_c,,-1837.234141976182
mu,M_adp_c,,-1432.2906523755682
mu,M_akg_c,,-629.3691801818273
mu,M_atp_c,,-2323.7152381434744
mu,M_co2_c,,-385.5783625320333
mu,M_co2_e,,-385.57771462222547
mu,M_coa_c,,-1778.2073301652222
mu,M_e4p_c,,-1165.897247631615
mu,M_etoh_c,,64.42860320915985
mu,M_f6p_c,,-1326.2870892953083
mu,M_g3p_c,,-1098.6719839076823
mu,M_g6p_c,,-1326.6254161758134
mu,M_glc_D_e,,-428.19148341187804
mu,M_gln_L_c,,-121.32534451569438
mu,M_glu_L_c,,-366.895804547609
mu,M_h2o_c,,-161.32455263598317
mu,M_h2o_e,,-161.32513896247585
mu,M_h_c,,3.5948097125206036
mu,M_h_e,,17.8950655762175
mu,M_nad_c,,-1185.673886775595
mu,M_nadh_c,,-1121.2999081784096
mu,M_nadp_c,,-2120.5739862842547
mu,M_nadph_c,,-2055.1461296429175
mu,M_nh4_c,,81.8306481933056
mu,M_nh4_e,,81.89246626071348
mu,M_o2_c,,16.466061373453655
mu,M_o2_e,,16.469421704132365
mu,M_oaa_c,,-712.4414815525635
mu,M_pep_c,,-1207.6422987798815
mu,M_pi_c,,-1065.8246396091238
mu,M_pi_e,,-1066.37852660109
mu,M_pyr_c,,-346.5944502720813
mu,M_pyr_e,,-345.65799840340435
mu,M_q8_c,,709.7055281179809
mu,M_q8h2_c,,688.9366948905467
mu,M_r5p_c,,-1243.4634547692556
mu,M_ru5p_D_c,,-1241.3508319339933
mu,M_xu5p_D_c,,-1244.180447644065
mu_p,M_3pg_c,,-1348.6547659703274
mu_p,M_accoa_c,,-1841.6571407762217
mu_p,M_adp_c,,-1434.7887031971695
mu_p,M_akg_c,,-631.4068098960371
mu_p,M_atp_c,,-2324.825993940888
mu_p,M_co2_c,,-397.0332335103359
mu_p,M_co2_e,,-397.1341778057471
mu_p,M_coa_c,,-1778.4648261291366
mu_p,M_e4p_c,,-1181.7289973914442
mu_p,M_etoh_c,,47.09400608833725
mu_p,M_f6p_c,,-1331.0657487354226
mu_p,M_g3p_c,,-1103.964337151033
mu_p,M_g6p_c,,-1330.964076047136
mu_p,M_glc_D_e,,-424.1613886050466
mu_p,M_gln_L_c,,-120.14907909927042
mu_p,M_glu_L_c,,-355.9915428595469
mu_p,M_h2o_c,,-134.03083028548645
mu_p,M_h2o_e,,-134.12990562961863
mu_p,M_h_c,,-19.37919449800292
mu_p,M_h_e,,-5.073984671712932
mu_p,M_nad_c,,-1183.947056366122
mu_p,M_nadh_c,,-1127.422709511983
mu_p,M_nadp_c,,-2126.185639360857
mu_p,M_nadph_c,,-2059.625075638632
mu_p,M_nh4_c,,89.0910646211012
mu_p,M_nh4_e,,89.1911983192644
mu_p,M_o2_c,,12.962023827747007
mu_p,M_o2_e,,13.062402675690782
mu_p,M_oaa_c,,-721.203506902835
mu_p,M_pep_c,,-1214.7252036303328
mu_p,M_pi_c,,-1061.8098823587068
mu_p,M_pi_e,,-1055.9682440459094
mu_p,M_pyr_c,,-344.16655234582595
mu_p,M_pyr_e,,-362.8775912677284
mu_p,M_q8_c,,692.3717137994977
mu_p,M_q8h2_c,,671.6105681356713
mu_p,M_r5p_c,,-1259.492339049737
mu_p,M_ru5p_D_c,,-1253.1032523866556
mu_p,M_xu5p_D_c,,-1253.2019198666446
u,,R_ATPS4r,1.8578997977872584e-08
u,,R_CO2t,1.1524141483107895e-09
u,,R_CYTBD,1.628456071737106e-11
u,,R_GLCpts,1.344338692298811e-12
u,,R_H2Ot,6.503745115811753e-09
u,,R_NADH16,4.810754637323291e-12
u,,R_NADTRHD,2.1416986514733632e-08
u,,R_NH4t,7.219203727898636e-10
u,,R_O2t,5.745889724930707e-10
u,,R_PDH,1.7455340168616402e-13
u,,R_PGI,6.380244458519719e-11
u,,R_PIt2r,6.25272308705207e-12
u,,R_PYK,1.2196567251244515e-12
u,,R_PYRt2r,1.1472565566178628e-09
u,,R_RPE,3.2035369882642445e-10
u,,R_RPI,1.5010018387918716e-11
u,,R_TKT2,8.282683165047636e-13
u,,R_lumped_0,8.215056468874014e-12
u,,R_lumped_1,6.557607947109192e-10
u,,R_lumped_10,2.6467503474079984e-09
u,,R_lumped_2,4.898433195203535e-11
u,,R_lumped_3,7.478478331152981e-13
u,,R_lumped_4,1.0606305828252802e-11
u,,R_lumped_5,1.1554993983743006e-09
u,,R_lumped_6,4.075557606153534e-10
u,,R_lumped_7,3.836508323117966e-09
u,,R_lumped_8,3.473158286283532e-09
u,,R_lumped_9,9.046978725651421e-11
u_v,,R_ATPS4r,644.7516671566161
u_v,,R_CYTBD,0.009718623083338375
u_v,,R_GLCpts,0.00015350223880341522
u_v,,R_NADH16,0.7795747066940258
u_v,,R_NADTRHD,0.0
u_v,,R_NH4t,0.10524539818457358
u_v,,R_PDH,7.99357467564176e-06
u_v,,R_PGI,2.471284913858385
u_v,,R_PIt2r,0.023800444475911807
u_v,,R_PYK,5218.0009643876065
u_v,,R_PYRt2r,-0.0
u_v,,R_RPE,0.10855338129183865
u_v,,R_RPI,0.012290445884673385
u_v,,R_TKT2,104.03444816702937
vmax_prod,,R_ATPS4r,6.69220946264615e-10
vmax_prod,,R_CO2t,1.4534763121262886e-09
vmax_prod,,R_CYTBD,0.09973843855842837
vmax_prod,,R_GLCpts,6.611499390328862e-10
vmax_prod,,R_H2Ot,7.7699760915421e-09
vmax_prod,,R_NADH16,2.0948485050145351e-10
vmax_prod,,R_NADTRHD,1.1990353347792637e-06
vmax_prod,,R_NH4t,2.2020629675512434e-09
vmax_prod,,R_O2t,2.1962699101589143e-09
vmax_prod,,R_PDH,1.074435339274142e-09
vmax_prod,,R_PGI,3.154798633936677e-08
vmax_prod,,R_PIt2r,4.0955536156745575e-12
vmax_prod,,R_PYK,4.369380154848386e-06
vmax_prod,,R_PYRt2r,2.0005860073816928e-09
vmax_prod,,R_RPE,1.7349153616589615e-08
vmax_prod,,R_RPI,2.9513272905870113e-09
vmax_prod,,R_TKT2,5.120671864940893e-08
vmax_prod,,R_lumped_0,9.853416996973507e-10
vmax_prod,,R_lumped_1,1.1656397744158306e-07
vmax_prod,,R_lumped_10,2.253907469699572e-06
vmax_prod,,R_lumped_2,1.9094175981669817e-09
vmax_prod,,R_lumped_3,6.923783070226535e-12
vmax_prod,,R_lumped_4,1.064342827675437e-08
vmax_prod,,R_lumped_5,9.086827954193187e-06
vmax_prod,,R_lumped_6,8.31320485869555e-09
vmax_prod,,R_lumped_7,5.612600165868606e-06
vmax_prod,,R_lumped_8,2.8984211398958965e-09
vmax_prod,,R_lumped_9,0.0009215508956578083
