{
  "guess": [
    1.3,
    1.3,
    1.3,
    1.3,
    1.3,
    1.3,
    1.3,
    1.3,
    1.3,
    1.3,
    1.3,
    1.3,
    1.3,
    1.3,
    1.3,
    1.3,
    1.3,
    1.3,
    1.3,
    1.3,
    1.3,
    1.3,
    1.3,
    1.3,
    1.3,
    1.3,
    1.3,
    1.3,
    1.3,
    1.3,
    1.3,
    1.3,
    5.0,
    5.0,
    5.0,
    5.0,
    5.0,
    100.0,
    80.0,
    40.0,
    35.0,
    70.0,
    60.0,
    45.0,
    100.0,
    95.0,
    20.0,
    70.0,
    65.0,
    5.0,
    10.0,
    50.0,
    60.0,
    120.0,
    120.0,
    0.0,
    0.0,
    0.0,
    0.5,
    0.5,
    0.5,
    0.5,
    0.5,
    0.5,
    0.5,
    0.5,
    0.5,
    0.5,
    0.5
  ],
  "max": [
    2.5,
    2.5,
    2.5,
    2.5,
    2.5,
    2.5,
    2.5,
    2.5,
    2.5,
    2.5,
    2.5,
    2.5,
    2.5,
    2.5,
    2.5,
    2.5,
    2.5,
    2.5,
    2.5,
    2.5,
    2.5,
    2.5,
    2.5,
    2.5,
    2.5,
    2.5,
    2.5,
    2.5,
    2.5,
    2.5,
    2.5,
    2.5,
    10.0,
    10.0,
    10.0,
    10.0,
    10.0,
    110.0,
    90.0,
    50.0,
    45.0,
    80.0,
    70.0,
    55.0,
    110.0,
    105.0,
    30.0,
    80.0,
    75.0,
    15.0,
    20.0,
    60.0,
    70.0,
    130.0,
    130.0,
    10.0,
    10.0,
    10.0,
    1.0,
    1.0,
    1.0,
    1.0,
    1.0,
    1.0,
    1.0,
    1.0,
    1.0,
    1.0,
    1.0
  ],
  "min": [
    0.1,
    0.1,
    0.1,
    0.1,
    0.1,
    0.1,
    0.1,
    0.1,
    0.1,
    0.1,
    0.1,
    0.1,
    0.1,
    0.1,
    0.1,
    0.1,
    0.1,
    0.1,
    0.1,
    0.1,
    0.1,
    0.1,
    0.1,
    0.1,
    0.1,
    0.1,
    0.1,
    0.1,
    0.1,
    0.1,
    0.1,
    0.1,
    0.0,
    0.0,
    0.0,
    0.0,
    0.0,
    90.0,
    70.0,
    30.0,
    25.0,
    60.0,
    50.0,
    35.0,
    90.0,
    85.0,
    10.0,
    60.0,
    55.0,
    -5.0,
    0.0,
    40.0,
    50.0,
    110.0,
    110.0,
    -10.0,
    -10.0,
    -10.0,
    0.0,
    0.0,
    0.0,
    0.0,
    0.0,
    0.0,
    0.0,
    0.0,
    0.0,
    0.0,
    0.0
  ],
  "names": [
    "km__A__r1",
    "km__B__r1",
    "km__B__r3",
    "km__D__r13",
    "km__D__r3",
    "km__D__r5",
    "km__EE__r5",
    "km__EE__r6",
    "km__F__r6",
    "km__F__r7",
    "km__G__r7",
    "km__G__r8",
    "km__H__r6",
    "km__H__r8",
    "km__II__r9",
    "km__J__r11",
    "km__J__r9",
    "km__K__r11",
    "km__L__r11",
    "km__L__r12",
    "km__M__r12",
    "km__M__r13",
    "km__N__r12",
    "km__X__r6",
    "km__X__r7",
    "km__X__r8",
    "km__Y__r1",
    "km__Y__r13",
    "km__Y__r16",
    "km__Z__r1",
    "km__Z__r13",
    "km__Z__r16",
    "km_tot_rate__input_A",
    "km_tot_rate__input_II",
    "km_tot_rate__output_K",
    "km_tot_rate__output_N",
    "km_tot_rate__output_X",
    "mu__A",
    "mu__B",
    "mu__D",
    "mu__EE",
    "mu__F",
    "mu__G",
    "mu__H",
    "mu__II",
    "mu__J",
    "mu__K",
    "mu__L",
    "mu__M",
    "mu__N",
    "mu__X",
    "mu__Y",
    "mu__Z",
    "mu__input_A_pool",
    "mu__input_II_pool",
    "mu__output_K_pool",
    "mu__output_N_pool",
    "mu__output_X_pool",
    "u_v__r1",
    "u_v__r11",
    "u_v__r12",
    "u_v__r13",
    "u_v__r16",
    "u_v__r3",
    "u_v__r5",
    "u_v__r6",
    "u_v__r7",
    "u_v__r8",
    "u_v__r9"
  ],
  "scale": [
    1,
    1,
    1,
    1,
    1,
    1,
    1,
    1,
    1,
    1,
    1,
    1,
    1,
    1,
    1,
    1,
    1,
    1,
    1,
    1,
    1,
    1,
    1,
    1,
    1,
    1,
    1,
    1,
    1,
    1,
    1,
    1,
    1,
    1,
    1,
    1,
    1,
    0,
    0,
    0,
    0,
    0,
    0,
    0,
    0,
    0,
    0,
    0,
    0,
    0,
    0,
    0,
    0,
    0,
    0,
    0,
    0,
    0,
    1,
    1,
    1,
    1,
    1,
    1,
    1,
    1,
    1,
    1,
    1
  ]
}