{
  "base_path": "/home/rik/Code/libraries/reduction_test_cases/reduction_test_cases/paper_run/sampling_test_all/reducers/minnw/parameterizer/pre_balancing",
  "git-hash": "8e40d40d3fca3d77e0471f848db94cfbfd90d848",
  "input_hashes": {
    "../../../../inputs/priors.json": {
      "hash_type": "md5",
      "hash_value": "4bec46670990888411cb9ceb8fbadde4"
    },
    "../cooperativities_filtered.json": {
      "hash_type": "md5",
      "hash_value": "8de68de2965629d0ca0f7d1628a15d81"
    },
    "../kineticizer/kinetic_model.xml": {
      "hash_type": "md5",
      "hash_value": "2011b29e66f116e37e580a6c3b78be99"
    },
    "parameter_data.csv": {
      "hash_type": "md5",
      "hash_value": "3ee5fe0dd986e7e50431e0d09ddd5f87"
    }
  },
  "output_hashes": {
    "balancing_results.npz": {
      "hash_type": "md5",
      "hash_value": "1cbb6e3ee39cf0a4dc66ff9743d5a6f1",
      "output_order": 0
    }
  },
  "settings": {
    "R": 0.008314,
    "T": 300,
    "augment": false,
    "ignore_metabolites": [],
    "ignore_reactions": [
      "R_ATPM",
      "R_Biomass_Ecoli_core_w_GAM",
      "R_EX_ac_e",
      "R_EX_acald_e",
      "R_EX_akg_e",
      "R_EX_co2_e",
      "R_EX_etoh_e",
      "R_EX_for_e",
      "R_EX_fru_e",
      "R_EX_fum_e",
      "R_EX_glc_e",
      "R_EX_gln_L_e",
      "R_EX_glu_L_e",
      "R_EX_h2o_e",
      "R_EX_h_e",
      "R_EX_lac_D_e",
      "R_EX_mal_L_e",
      "R_EX_nh4_e",
      "R_EX_o2_e",
      "R_EX_pi_e",
      "R_EX_pyr_e",
      "R_EX_succ_e",
      "R_FRUpts2",
      "R_FUMt2_2",
      "R_GLNabc",
      "R_MALt2_2",
      "R_EX_lac_D_e",
      "R_EX_ac_e",
      "R_EX_glu_L_e",
      "R_EX_glc_e",
      "R_EX_pyr_e",
      "R_EX_acald_e",
      "R_EX_gln_L_e",
      "R_EX_o2_e",
      "R_EX_fum_e",
      "R_EX_for_e",
      "R_EX_etoh_e",
      "R_EX_fru_e",
      "R_EX_akg_e",
      "R_EX_mal_L_e",
      "R_EX_pi_e",
      "R_EX_h2o_e",
      "R_EX_nh4_e",
      "R_EX_succ_e",
      "R_EX_h_e",
      "R_EX_co2_e",
      "R_Biomass_Ecoli_core_w_GAM"
    ],
    "silence_output": false
  },
  "updated": "Monday - 09/03/2020 - 16:13:44 (CET)"
}