reaction,opt_median,opt_sd,final_mean,final_sd,correct_sign
R_ACONTa,0.10000000006989396,0.0010000000006989396,0.09999999966811401,0.0009999999818860875,True
R_ACONTb,8.24781837007721,0.0824781837007721,8.247816412227849,0.082466455247188,True
R_AKGDH,48.63707693341787,0.4863707693341787,48.63709649844304,0.48371543737850864,True
R_ATPS4r,0.1000000008207711,0.001000000008207711,0.09999999160527295,0.0009999998893814477,True
R_CO2t,-0.10000000173031331,0.0010000000173031331,-0.09992009303346094,0.0009996003581606724,True
R_CS,56.706725704801656,0.5670672570480165,56.70647924328398,0.563905226308099,True
R_CYTBD,91.89483635210647,0.9189483635210647,91.89522020858385,0.8022031356430918,True
R_ENO,0.10000000002621068,0.0010000000002621068,0.09999999996080078,0.0009999999461979753,True
R_FBA,0.10000000010080079,0.001000000001008008,0.10000000107515916,0.0009999999900716326,True
R_FUM,18.645432065593663,0.18645432065593665,18.645442213262754,0.1862434491416962,True
R_G6PDH2r,34.80564477638091,0.3480564477638091,34.80567984472941,0.34731402745027623,True
R_GAPD,30.81996898758989,0.3081996898758989,30.819812475949448,0.3064787849919285,True
R_GLCpts,36.845822390846216,0.36845822390846217,36.845889990448256,0.36766010249890524,True
R_GLNS,47.222329910828265,0.47222329910828265,47.22223499151005,0.46677157787853446,True
R_GLUDy,-0.1000000009601294,0.001000000009601294,-0.10000000055879354,0.0009999999483415137,True
R_GND,18.020242349336392,0.18020242349336393,18.02027439244239,0.1800825263707426,True
R_H2Ot,-0.10000000003598686,0.0010000000003598686,-0.09992008672304564,0.0009996003076722499,True
R_ICDHyr,0.10000000090558725,0.0010000000090558726,0.10000000086620275,0.0009999999907464275,True
R_MDH,5.907270793741432,0.05907270793741432,5.907271569504701,0.05906551413768395,True
R_NADH16,16.111471395514776,0.16111471395514776,16.11145900343024,0.1606010536495343,True
R_NADTRHD,7.61389982698956,0.0761389982698956,7.61390806893769,0.07611285115032844,True
R_NH4t,0.10000000190500025,0.0010000000190500025,0.10000000158102296,0.000999999655462608,True
R_O2t,0.10026189779379768,0.001002618977937977,0.10018136648544207,0.001002216174227837,True
R_PDH,61.30816103336739,0.6130816103336739,61.30798491083897,0.6090810229394598,True
R_PFK,13.178139373293087,0.13178139373293088,13.178122360350443,0.13175346324074483,True
R_PGK,-0.10000059825897867,0.0010000059825897867,-0.1000005920300282,0.0010000059231103288,True
R_PGL,42.20339941767659,0.42203399417676596,42.20345534062582,0.42056695061237565,True
R_PGM,-0.1000000000281771,0.0010000000002817712,-0.099999999171132,0.0009999999442708019,True
R_PIt2r,20.178454985869006,0.20178454985869007,20.1783907929846,0.20175100461384357,True
R_PPC,55.25832096593565,0.5525832096593566,55.25805467014936,0.5440322970219635,True
R_PYK,0.10000000026112277,0.0010000000026112277,0.09999999435649443,0.0009999999636118727,True
R_PYRt2r,-4.547528452833198,0.04547528452833199,-4.547528875149737,0.045471756916569545,True
R_RPE,0.1000000014312139,0.001000000014312139,0.10000000091599759,0.0010000000011293469,True
R_RPI,-5.042895928734316,0.05042895928734316,-5.042897526487877,0.050428260141717904,True
R_SUCDi,29.309470620943742,0.29309470620943745,29.309534673617122,0.2923655883585653,True
R_SUCOAS,-5.653540738366403,0.056535407383664034,-5.653543848081426,0.05653126558359074,True
R_TALA,0.10000000108658291,0.001000000010865829,0.09999999846991159,0.0010000000050155015,True
R_TKT1,0.1000000037777351,0.0010000000377773511,0.10000000824175004,0.0010000000329723922,True
R_TKT2,0.10000000064043313,0.0010000000064043313,0.10000000185118552,0.0010000000015318266,True
R_TPI,0.10000000025177691,0.0010000000025177692,0.10000000157174327,0.0009999999893357504,True
