,,,median,sd
A,,input_A,20.17813281664948,0.49184687140402816
A,,input_II,21.459275568126586,0.48348580848811024
A,,output_K,35.43850026521572,0.38388690037294737
A,,output_N,16.727280258736485,0.49209213557656917
A,,output_X,25.596844220610997,0.39168836368690235
A,,r1,6.177338020369902,0.6708363098346457
A,,r10,6.0701152438383765,0.5744504319386484
A,,r11,8.974095999209851,0.6281366225001023
A,,r12,3.1170468713832102,0.6731425501070576
A,,r13,8.347778743356734,0.6594590330793464
A,,r14,16.749596027549227,0.5825612860052349
A,,r15,11.483795557079542,0.7583197518167261
A,,r16,11.987747907292697,0.5283165294186377
A,,r2,4.316389210811506,0.7631020577219855
A,,r3,2.0994601265201,0.7356874589575166
A,,r4,4.789275214726942,0.5414386872188457
A,,r5,5.897739756872644,0.5356544836065319
A,,r6,6.329388171850994,0.7318527882920745
A,,r7,4.6088956533803715,0.7141585928361859
A,,r8,-0.23289739723364278,0.6657525852395788
A,,r9,10.800985175476995,0.5862893877909301
R,,,0.008314,0.0
T,,,300.0,0.0
c,A,,7.941889449780521,1.5857147525785447
c,B,,2.319341259462823,0.43154482546864165
c,C,,1.7362520421194612,0.2776395832113642
c,D,,2.652953185358657,0.4096741190274311
c,EE,,1.8787902434645243,0.351830899612163
c,F,,1.2506405994161154,0.25713582966956544
c,G,,0.3542932591548851,0.06798307290625094
c,H,,4.52294656842468,0.8489482905995169
c,II,,4.79246269446526,0.9397373465229328
c,J,,0.5047965869536258,0.09374977874436756
c,K,,0.5754070632604485,0.08869307587199288
c,L,,0.18593233841377044,0.03499291246268266
c,M,,0.4379836287104187,0.0907637880702857
c,N,,0.12526177084799542,0.025023336210691062
c,X,,0.5846226855942783,0.09201181952663685
c,Y,,0.6603818102407073,0.13917645830000522
c,Z,,1.4183771497934134,0.29892511450300213
c,input_A_pool,,9.999991036945381,0.000999999002590474
c,input_II_pool,,9.999990717408242,0.0009999989703831146
c,output_K_pool,,0.0010002015974543694,1.000191191015909e-06
c,output_N_pool,,0.0010001549212391306,1.0001448101483507e-06
c,output_X_pool,,0.0010001770466174754,1.0001666592573517e-06
kcat_prod,,input_A,31.161033947477303,9.28039694533488
kcat_prod,,input_II,31.281605838413995,9.316299163944105
kcat_prod,,output_K,31.075192885527176,9.254671147688246
kcat_prod,,output_N,2.0835608054932595,0.6205272177745123
kcat_prod,,output_X,5.182593587098556,1.5434605103382593
kcat_prod,,r1,2.038287326626747,0.7030925375549341
kcat_prod,,r10,5.341540822710603,1.5908012523104593
kcat_prod,,r11,2.1826950251486585,0.7046676444727576
kcat_prod,,r12,0.9103106586028552,0.29389308888353455
kcat_prod,,r13,10.349227430288792,3.5698717718730633
kcat_prod,,r14,78.6325204396406,23.41819663439776
kcat_prod,,r15,4.189959935519329,1.6029850350578274
kcat_prod,,r16,5.546348846331312,1.6517685044235866
kcat_prod,,r2,1.9751768111773456,0.7203887636879365
kcat_prod,,r3,1.9430482453623714,0.7086632221655502
kcat_prod,,r4,2.2025510252845275,0.6559513494746678
kcat_prod,,r5,2.2230314223872503,0.6620480580866545
kcat_prod,,r6,0.9142712495978936,0.31537875036867685
kcat_prod,,r7,0.9184775173429361,0.29653416062753396
kcat_prod,,r8,2.0631753001326842,0.6660908534403872
kcat_prod,,r9,2.2844275836611136,0.6803465531566193
kcat_sub,,input_A,0.02423081117966121,0.007279726290508347
kcat_sub,,input_II,0.024135358645081442,0.007251043966056621
kcat_sub,,output_K,0.024299224930882782,0.007300149537042608
kcat_sub,,output_N,0.38468257900017405,0.11557118822608453
kcat_sub,,output_X,0.15157487903454037,0.045537356209461116
kcat_sub,,r1,0.3934176740165801,0.13744792556906965
kcat_sub,,r10,0.14696647453467332,0.04415296697123854
kcat_sub,,r11,0.3668344374103167,0.11974392735539047
kcat_sub,,r12,0.8967184191127657,0.29271716571460965
kcat_sub,,r13,0.07475448503739977,0.026116749239170973
kcat_sub,,r14,0.009408174704229338,0.0028264995824112426
kcat_sub,,r15,0.18836598018438097,0.07316752815064735
kcat_sub,,r16,0.14142200687698797,0.04248650590491186
kcat_sub,,r2,0.4062700116655849,0.15027864714390726
kcat_sub,,r3,0.41313725304385973,0.15281715757244976
kcat_sub,,r4,0.36345477339020554,0.10919133102241675
kcat_sub,,r5,0.36003277473242895,0.10816282734508828
kcat_sub,,r6,0.8927483212974284,0.31190612416565244
kcat_sub,,r7,0.8885698596582278,0.29006164693708875
kcat_sub,,r8,0.38856780285149206,0.12684006097654243
kcat_sub,,r9,0.35014594929346354,0.10519479385209311
keq,,input_A,2590.4554635272807,145.86446934063238
keq,,input_II,2612.677901961109,147.10439574073138
keq,,output_K,2574.6975763699224,144.7009660982594
keq,,output_N,6.528781407156177,0.36762199056960054
keq,,output_X,48.99690684511103,2.7545278944924894
keq,,r1,7.465284769421625,0.5930213672369428
keq,,r10,52.382637867885876,2.9456168490437293
keq,,r11,7.741035464258657,0.5326161583164095
keq,,r12,1.0295967561138903,0.07096650430410524
keq,,r13,369.65639154664,29.351110480213574
keq,,r14,20069.455306594253,1129.0966468707236
keq,,r15,54.5810379987111,5.315924275704693
keq,,r16,56.928675966210804,3.1952689436305604
keq,,r2,7.335642380281407,0.6526965365692481
keq,,r3,7.041354363493802,0.6259933875037166
keq,,r4,7.3821443543634215,0.41472647461830014
keq,,r5,7.534830866855321,0.4231177286492492
keq,,r6,1.0884102203094355,0.08662869633446268
keq,,r7,1.0510298026389824,0.07254155428422905
keq,,r8,6.798008884703751,0.4683272030129565
keq,,r9,8.002840585758223,0.45041106328344693
km,A,input_A,1.3768975989592818,0.3464624598634557
km,A,r1,0.8854760526500147,0.2232454339046309
km,B,r1,1.0629044882371723,0.26797853309024017
km,B,r10,1.164675863251664,0.2930620302216617
km,B,r2,0.8881232692408758,0.22410644824805104
km,B,r3,0.8895067372631823,0.22445550984808624
km,C,r2,1.1576042006637222,0.2729229820810892
km,C,r4,0.8789862158836991,0.22117523583745038
km,D,r13,1.2401305788871801,0.31266059156038306
km,D,r3,1.1540061099519006,0.2720744661618057
km,D,r5,0.8782144092567775,0.22098101919916105
km,EE,r4,1.0707522525162838,0.26942843664013166
km,EE,r5,1.071693268372517,0.26966520728606597
km,EE,r6,0.9554850209330424,0.24089611749123738
km,F,r6,0.9850248302889828,0.24834367054479387
km,F,r7,0.9550688515121541,0.24056545533646118
km,G,r15,0.8269418585447365,0.20883469568620672
km,G,r7,0.9854540529701884,0.24821896619347306
km,G,r8,0.884456689410885,0.2227794021254371
km,H,r14,1.5033320345050212,0.3782765443116916
km,H,r6,0.9554850209330424,0.24089611749123738
km,H,r8,1.0641295179927126,0.2680358921366178
km,II,input_II,1.3774023680272982,0.3465894696947071
km,II,r9,0.8759465211169117,0.22041041459015892
km,J,r10,0.8081016360728557,0.2033388975983135
km,J,r11,0.8797420310908843,0.2215918192116602
km,J,r9,1.074467958829438,0.27036345548523455
km,K,output_K,0.6837276205490261,0.1720432257381919
km,K,r11,1.0698323341686562,0.26947228255756545
km,K,r15,1.335231717897768,0.31592906763749695
km,L,r11,1.0698323341686562,0.26947228255756545
km,L,r12,0.955878803797815,0.24076942020319078
km,L,r14,0.6260602774277486,0.1575326759761113
km,M,r12,0.9846190404566294,0.24800859120410867
km,M,r13,0.7589333628340909,0.19134158790886877
km,N,output_N,0.8836317184291969,0.2223442169583051
km,N,r12,0.9846190404566294,0.24800859120410865
km,X,output_X,0.8104218844622959,0.20392272542826498
km,X,r15,1.1381410444556894,0.287424486027547
km,X,r6,0.985024830288983,0.24834367054479387
km,X,r7,0.9854540529701884,0.24821896619347306
km,X,r8,1.0641295179927126,0.26803589213661777
km,Y,r1,0.8854760526500147,0.22324543390463092
km,Y,r13,0.7589333628340909,0.19134158790886877
km,Y,r16,1.168842459179472,0.2941103922322956
km,Z,r1,1.0629044882371723,0.26797853309024017
km,Z,r13,1.2401305788871801,0.3126605915603831
km,Z,r16,0.8052209801215996,0.2026140105001727
km,input_A_pool,input_A,0.6835486323017899,0.17199822322486483
km,input_II_pool,input_II,0.6832981359950606,0.17193519054064554
km,output_K_pool,output_K,1.3765371506163235,0.34637169045522026
km,output_N_pool,output_N,1.0651230042549105,0.26801204099636633
km,output_X_pool,output_X,1.1613413811161988,0.2922229817954264
kv,,input_A,0.8689402337009917,0.2039803925738323
kv,,input_II,0.8689032028391859,0.2039716996947876
kv,,output_K,0.8689666861830743,0.20398660155233805
kv,,output_N,0.8952706541380808,0.21016135794554655
kv,,output_X,0.8863131478487998,0.2080586170986458
kv,,r1,0.895487721311113,0.2102185954652626
kv,,r10,0.8860177330600194,0.20798926969527895
kv,,r11,0.8948115452924742,0.21005685428740473
kv,,r12,0.9034889787284914,0.2120938811239976
kv,,r13,0.8795744238472211,0.2064828979291842
kv,,r14,0.8601095800710646,0.20190743015846438
kv,,r15,0.8883951317895569,0.20855888893699212
kv,,r16,0.885649922197276,0.20790292686516595
kv,,r2,0.8957985856868785,0.21029434932514013
kv,,r3,0.8959607215836531,0.21033241119147364
kv,,r4,0.8947221265706761,0.21003259241150304
kv,,r5,0.894630745793738,0.21001114097211981
kv,,r6,0.9034456947094397,0.2120867562141216
kv,,r7,0.9033999328562351,0.21207297826846216
kv,,r8,0.8953677977624745,0.21018743506101206
kv,,r9,0.8943618198878981,0.20994801242241443
mu,A,,100.16043871834714,0.09935647812499311
mu,B,,85.0653837748514,0.09912299323928452
mu,C,,40.047539616423414,0.09887541008996159
mu,D,,40.09860144291449,0.09877388924084533
mu,EE,,35.061473790224966,0.09918935682493235
mu,F,,70.0164770214408,0.09940536786820496
mu,G,,59.91048141489054,0.09923285382588792
mu,H,,45.14816531664182,0.09919481249913778
mu,II,,100.12629059345001,0.09932377611179054
mu,J,,94.9388620337608,0.0991755982875713
mu,K,,19.97630255446848,0.09877779812664761
mu,L,,69.85809073604347,0.09919664910855633
mu,M,,64.92679879932395,0.09941877576019267
mu,N,,4.858543039965981,0.09935513319758846
mu,X,,9.981858155267581,0.09885134713414655
mu,Y,,49.95923354887999,0.09938001484412062
mu,Z,,60.04028907727444,0.09938001484412062
mu,input_A_pool,,119.76382558687442,0.09954629070915408
mu,input_II_pool,,119.75098290970334,0.09954217511756006
mu,output_K_pool,,0.388134380830797,0.09949856587179115
mu,output_N_pool,,0.1788743393984044,0.09954641245754786
mu,output_X_pool,,0.2750374205861703,0.09950162079807685
mu_p,A,,105.3287982736046,0.48652020830898857
mu_p,B,,87.16371234594202,0.45359166530728995
mu_p,C,,41.423661567565254,0.3889669083274546
mu_p,D,,42.53212610971096,0.3752043711919398
mu_p,EE,,36.63438635283831,0.4565046025506456
mu_p,F,,70.57431956615906,0.5007632707836348
mu_p,G,,57.32242393783182,0.46773083241379027
mu_p,H,,48.912321360118604,0.4575603743264434
mu_p,II,,104.03481276525739,0.47789412069564086
mu_p,J,,93.23382758978039,0.4527341648810101
mu_p,K,,18.59781420290271,0.3744975258174374
mu_p,L,,65.66191738766783,0.45878830344578425
mu_p,M,,62.867652760360386,0.5046544658496611
mu_p,N,,-0.32278224407576506,0.48676979203426557
mu_p,X,,8.64299997494686,0.38264996989172817
mu_p,Y,,48.92429740696353,0.5130629418178865
mu_p,Z,,60.91204531425623,0.5130629418178865
mu_p,input_A_pool,,125.50693109025408,0.09954659844328081
mu_p,input_II_pool,,125.49408833338397,0.09954248281332499
mu_p,output_K_pool,,-16.84068606231301,0.0995292894157492
mu_p,output_N_pool,,-17.05006250281225,0.0995771806124393
mu_p,output_X_pool,,-16.953844245664136,0.09953234719077525
u,,input_A,0.09008378240072208,0.023052217062572874
u,,input_II,0.09007927185277144,0.023051062821004806
u,,output_K,0.09008700446862604,0.023053041495533194
u,,output_N,0.0932994040153137,0.02387508667834541
u,,output_X,0.09220358010710793,0.02359466797748933
u,,r1,0.09332598299326139,0.02388273866942932
u,,r10,0.09216747317740676,0.023585428315279114
u,,r11,0.09324319174894127,0.023861144817249783
u,,r12,0.09430648844078947,0.02413324497404788
u,,r13,0.09138046768565468,0.02338486835033798
u,,r14,0.08900911846060477,0.022777213179936022
u,,r15,0.09245810925610581,0.023661360782175872
u,,r16,0.09212252061579287,0.0235739249796955
u,,r2,0.09336404901360833,0.023892856078444356
u,,r3,0.09338390382451281,0.023897937061245454
u,,r4,0.09323224410634047,0.02385790051711405
u,,r5,0.09322105644468005,0.02385503760161053
u,,r6,0.0943011801479712,0.02413229825064926
u,,r7,0.09429556802534554,0.024130450502693072
u,,r8,0.09331129871117191,0.023878573625439443
u,,r9,0.09318813326146565,0.023846612745646166
vmax_prod,,input_A,2.807103801506063,1.1498553536252138
vmax_prod,,input_II,2.8178242763097314,1.1542462174153767
vmax_prod,,output_K,2.7994710403419036,1.146716739662363
vmax_prod,,output_N,0.19439498138218805,0.07962872569124152
vmax_prod,,output_X,0.47785368297062586,0.19573831461056293
vmax_prod,,r1,0.19022516838014775,0.08559107668979754
vmax_prod,,r10,0.4923163205032032,0.2016627791357355
vmax_prod,,r11,0.20352145075939668,0.08767473304349857
vmax_prod,,r12,0.08584820160305767,0.03698289544355071
vmax_prod,,r13,0.945717242764996,0.42552022751130314
vmax_prod,,r14,6.9990113266678975,2.8669449257113953
vmax_prod,,r15,0.38739577349695237,0.18726979400420973
vmax_prod,,r16,0.5109436359385349,0.2092907531311031
vmax_prod,,r2,0.1844105046093044,0.08619546111990414
vmax_prod,,r3,0.181449430471308,0.08481079361368965
vmax_prod,,r4,0.2053487748459977,0.0841145984825182
vmax_prod,,r5,0.20723333770465904,0.08488634400576239
vmax_prod,,r6,0.08621685781244151,0.03879355730657928
vmax_prod,,r7,0.08660835921636138,0.03731072325214969
vmax_prod,,r8,0.19251756672419265,0.08293512927495651
vmax_prod,,r9,0.2128815420923792,0.08720102615507905
