{
  "base_path": "/home/rik/Code/libraries/reduction_test_cases/reduction_test_cases/paper_run/optimization_test_final/amici_simulator/full/experiment_7",
  "git-hash": "39fdb75b1fc8d83fe84308ea8d733859b38d7886",
  "input_hashes": {
    "../../../amici_compiler/full/experiment_7/model_description.json": {
      "hash_type": "md5",
      "hash_value": "e1c73efa592022d1be9104e0aba0c8ec"
    },
    "../../../amici_compiler/full/experiment_7/simulate_model.m": {
      "hash_type": "md5",
      "hash_value": "87dada36a0160289a457a08030f5184d"
    },
    "../../../inputs/experiments/experiment_7/conditions.h5": {
      "hash_type": "md5",
      "hash_value": "ca2840ccb38c6edf0c527d39e247c547"
    }
  },
  "output_hashes": {
    "parameter_scaling.json": {
      "hash_type": "md5",
      "hash_value": "b2ed61f5152c75957aa2c0912f7e98c0",
      "output_order": 1
    },
    "simulations.h5": {
      "hash_type": "md5",
      "hash_value": "d4f4383ea476beb2b1ca2ced83b5d057",
      "output_order": 0
    }
  },
  "settings": {
    "atol": 1e-12,
    "deflate": 4,
    "maxsteps": 1000000.0,
    "pscale": "auto",
    "rtol": 1e-09,
    "sensi": 0,
    "shuffle": true,
    "silence_output": false,
    "t_end": 150,
    "t_out": null,
    "t_start": 0,
    "t_step": 0.1
  },
  "updated": "Thursday - 19/03/2020 - 16:11:16 (CET)"
}