{
  "base_path": "/home/rik/Code/libraries/reduction_test_cases/reduction_test_cases/paper_run/optimization_test_final/reducers/minnw/restored",
  "git-hash": "27034ce578e79e572a08c4b1651fd44a8dd9a2f4",
  "input_hashes": {
    "../../../inputs/input_model.xml": {
      "hash_type": "md5",
      "hash_value": "e98db8a8e2278d5f677a1745ccbb0b6b"
    },
    "../../../inputs/normalized/annotation.json": {
      "hash_type": "md5",
      "hash_value": "50830660dbd48f213fe308a8d611df6f"
    },
    "../reduced/reduced_temp.xml": {
      "hash_type": "md5",
      "hash_value": "08c90783b0b60ed3f9063d2db54c5c6e"
    }
  },
  "output_hashes": {
    "lumpings.json": {
      "hash_type": "md5",
      "hash_value": "dd48b14d20f0b77fe694481a1637f1e3",
      "output_order": 1
    },
    "reduced.xml": {
      "hash_type": "md5",
      "hash_value": "d2fecd34ba7920df98c25d59b3919eee",
      "output_order": 0
    }
  },
  "settings": {
    "silence_output": true,
    "validate": true
  },
  "updated": "Thursday - 19/03/2020 - 15:48:05 (CET)"
}